cpu/build/cpu_wavedata.vcd
$date
	Sat Sep 11 20:00:36 2021
$end
$version
	Icarus Verilog
$end
$timescale
	100ps
$end
$scope module testbenchCPU $end
$var wire 3 ! memWrite [2:0] $end
$var wire 4 " memRead [3:0] $end
$var wire 1 # insReadEn $end
$var wire 32 $ WRITE_DATA [31:0] $end
$var wire 32 % READ_DATA [31:0] $end
$var wire 32 & PC [31:0] $end
$var wire 128 ' MAIN_MEM_WRITE_DATA [127:0] $end
$var wire 1 ( MAIN_MEM_WRITE $end
$var wire 128 ) MAIN_MEM_READ_DATA [127:0] $end
$var wire 1 * MAIN_MEM_READ $end
$var wire 1 + MAIN_MEM_BUSY_WAIT $end
$var wire 28 , MAIN_MEM_ADDRESS [27:0] $end
$var wire 128 - INS_MEM_READ_DATA [127:0] $end
$var wire 1 . INS_MEM_READ $end
$var wire 1 / INS_MEM_BUSY_WAIT $end
$var wire 28 0 INS_MEM_ADDRESS [27:0] $end
$var wire 1 1 INS_CACHE_BUSY_WAIT $end
$var wire 32 2 INS [31:0] $end
$var wire 1 3 BUSY_WAIT $end
$var wire 32 4 ADDRESS [31:0] $end
$var reg 1 5 CLK $end
$var reg 1 6 RESET $end
$scope module myCacheMemory $end
$var wire 1 7 TAG_MATCH $end
$var wire 128 8 block [127:0] $end
$var wire 1 5 clock $end
$var wire 1 6 reset $end
$var wire 32 9 writedata [31:0] $end
$var wire 3 : write [2:0] $end
$var wire 25 ; tag [24:0] $end
$var wire 4 < read [3:0] $end
$var wire 2 = offset [1:0] $end
$var wire 3 > index [2:0] $end
$var wire 2 ? byte_offset [1:0] $end
$var wire 32 @ address [31:0] $end
$var wire 128 A MAIN_MEM_READ_DATA [127:0] $end
$var wire 1 + MAIN_MEM_BUSY_WAIT $end
$var reg 128 B CURRENT_DATA [127:0] $end
$var reg 1 C CURRENT_DIRTY $end
$var reg 25 D CURRENT_TAG [24:0] $end
$var reg 1 E CURRENT_VALID $end
$var reg 28 F MAIN_MEM_ADDRESS [27:0] $end
$var reg 1 * MAIN_MEM_READ $end
$var reg 1 ( MAIN_MEM_WRITE $end
$var reg 128 G MAIN_MEM_WRITE_DATA [127:0] $end
$var reg 1 3 busywait $end
$var reg 32 H cache_readdata [31:0] $end
$var reg 32 I cache_writedata [31:0] $end
$var reg 2 J next_state [1:0] $end
$var reg 1 K readCache $end
$var reg 1 L readaccess $end
$var reg 32 M readdata [31:0] $end
$var reg 2 N state [1:0] $end
$var reg 1 O writeCache $end
$var reg 1 P writeCache_mem $end
$var reg 32 Q write_mask [31:0] $end
$var reg 1 R writeaccess $end
$var integer 32 S i [31:0] $end
$upscope $end
$scope module myDataMem $end
$var wire 28 T address [27:0] $end
$var wire 1 5 clock $end
$var wire 1 * read $end
$var wire 1 6 reset $end
$var wire 1 ( write $end
$var wire 128 U writedata [127:0] $end
$var reg 1 + busywait $end
$var reg 1 V readaccess $end
$var reg 128 W readdata [127:0] $end
$var reg 1 X writeaccess $end
$var integer 32 Y i [31:0] $end
$upscope $end
$scope module myInsCacheMemory $end
$var wire 1 5 clock $end
$var wire 1 6 reset $end
$var wire 25 Z tag [24:0] $end
$var wire 1 # read $end
$var wire 2 [ offset [1:0] $end
$var wire 3 \ index [2:0] $end
$var wire 32 ] address [31:0] $end
$var wire 1 ^ TAG_MATCH $end
$var wire 128 _ MAIN_MEM_READ_DATA [127:0] $end
$var wire 1 / MAIN_MEM_BUSY_WAIT $end
$var reg 32 ` CURRENT_DATA [31:0] $end
$var reg 25 a CURRENT_TAG [24:0] $end
$var reg 1 b CURRENT_VALID $end
$var reg 28 c MAIN_MEM_ADDRESS [27:0] $end
$var reg 1 . MAIN_MEM_READ $end
$var reg 1 1 busywait $end
$var reg 2 d next_state [1:0] $end
$var reg 1 e readCache $end
$var reg 1 f readaccess $end
$var reg 32 g readdata [31:0] $end
$var reg 2 h state [1:0] $end
$var reg 128 i temp [127:0] $end
$var reg 1 j writeCache_mem $end
$var integer 32 k i [31:0] $end
$upscope $end
$scope module myInsMem $end
$var wire 28 l address [27:0] $end
$var wire 1 5 clock $end
$var wire 1 . read $end
$var reg 1 / busywait $end
$var reg 1 m readaccess $end
$var reg 128 n readdata [127:0] $end
$upscope $end
$scope module mycpu $end
$var wire 1 5 CLK $end
$var wire 32 o DATA_CACHE_ADDR [31:0] $end
$var wire 1 3 DATA_CACHE_BUSY_WAIT $end
$var wire 32 p DATA_CACHE_DATA [31:0] $end
$var wire 32 q DATA_CACHE_READ_DATA [31:0] $end
$var wire 1 r FLUSH $end
$var wire 32 s INSTRUCTION [31:0] $end
$var wire 1 1 INS_CACHE_BUSY_WAIT $end
$var wire 1 6 RESET $end
$var wire 4 t memReadEn [3:0] $end
$var wire 3 u memWriteEn [2:0] $end
$var wire 2 v REG_WRITE_SELECT_S2 [1:0] $end
$var wire 1 w REG_WRITE_EN_S2 $end
$var wire 32 x REG_WRITE_DATA [31:0] $end
$var wire 32 y PC_PLUS_4 [31:0] $end
$var wire 32 z PC_NEXT [31:0] $end
$var wire 1 { OPERAND2_SEL $end
$var wire 1 | OPERAND1_SEL $end
$var wire 2 } OP2_HAZ_MUX_SEL [1:0] $end
$var wire 32 ~ OP2_HAZ_MUX_OUT [31:0] $end
$var wire 2 !" OP1_HAZ_MUX_SEL [1:0] $end
$var wire 32 "" OP1_HAZ_MUX_OUT [31:0] $end
$var wire 3 #" MEM_WRITE_S2 [2:0] $end
$var wire 4 $" MEM_READ_S2 [3:0] $end
$var wire 4 %" IMMEDIATE_SELECT [3:0] $end
$var wire 32 &" IMMEDIATE_OUT_S2 [31:0] $end
$var wire 1 '" HAZ_MUX_SEL $end
$var wire 32 (" HAZ_MUX_OUT [31:0] $end
$var wire 32 )" DATA2_S2 [31:0] $end
$var wire 32 *" DATA1_S2 [31:0] $end
$var wire 1 +" BRANCH_SELECT_OUT $end
$var wire 4 ," BRANCH_SELECT [3:0] $end
$var wire 5 -" ALU_SELECT [4:0] $end
$var wire 32 ." ALU_OUT [31:0] $end
$var wire 32 /" ALU_IN_2 [31:0] $end
$var wire 32 0" ALU_IN_1 [31:0] $end
$var reg 32 1" PC [31:0] $end
$var reg 32 2" PR_ALU_OUT_S3 [31:0] $end
$var reg 32 3" PR_ALU_OUT_S4 [31:0] $end
$var reg 5 4" PR_ALU_SELECT [4:0] $end
$var reg 4 5" PR_BRANCH_SELECT_S2 [3:0] $end
$var reg 32 6" PR_DATA_1_S2 [31:0] $end
$var reg 32 7" PR_DATA_2_S2 [31:0] $end
$var reg 32 8" PR_DATA_2_S3 [31:0] $end
$var reg 32 9" PR_DATA_CACHE_OUT [31:0] $end
$var reg 32 :" PR_IMMEDIATE_SELECT_OUT [31:0] $end
$var reg 32 ;" PR_INSTRUCTION [31:0] $end
$var reg 4 <" PR_MEM_READ_S2 [3:0] $end
$var reg 4 =" PR_MEM_READ_S3 [3:0] $end
$var reg 4 >" PR_MEM_READ_S4 [3:0] $end
$var reg 3 ?" PR_MEM_WRITE_S2 [2:0] $end
$var reg 3 @" PR_MEM_WRITE_S3 [2:0] $end
$var reg 1 A" PR_OPERAND1_SEL $end
$var reg 1 B" PR_OPERAND2_SEL $end
$var reg 32 C" PR_PC_S1 [31:0] $end
$var reg 32 D" PR_PC_S2 [31:0] $end
$var reg 32 E" PR_PC_S3 [31:0] $end
$var reg 32 F" PR_PC_S4 [31:0] $end
$var reg 5 G" PR_REGISTER_WRITE_ADDR_S2 [4:0] $end
$var reg 5 H" PR_REGISTER_WRITE_ADDR_S3 [4:0] $end
$var reg 5 I" PR_REGISTER_WRITE_ADDR_S4 [4:0] $end
$var reg 5 J" PR_REGISTER_WRITE_ADDR_S5 [4:0] $end
$var reg 1 K" PR_REG_WRITE_EN_S2 $end
$var reg 1 L" PR_REG_WRITE_EN_S3 $end
$var reg 1 M" PR_REG_WRITE_EN_S4 $end
$var reg 1 N" PR_REG_WRITE_EN_S5 $end
$var reg 2 O" PR_REG_WRITE_SELECT_S2 [1:0] $end
$var reg 2 P" PR_REG_WRITE_SELECT_S3 [1:0] $end
$var reg 2 Q" PR_REG_WRITE_SELECT_S4 [1:0] $end
$var reg 5 R" REG_READ_ADDR1_S2 [4:0] $end
$var reg 5 S" REG_READ_ADDR2_S2 [4:0] $end
$var reg 5 T" REG_READ_ADDR2_S3 [4:0] $end
$var reg 32 U" REG_WRITE_DATA_S5 [31:0] $end
$var reg 1 # insReadEn $end
$scope module muxjump $end
$var wire 32 V" INPUT1 [31:0] $end
$var wire 1 +" SELECT $end
$var wire 32 W" INPUT2 [31:0] $end
$var reg 32 X" RESULT [31:0] $end
$upscope $end
$scope module myAlu $end
$var wire 32 Y" INTER_AND [31:0] $end
$var wire 32 Z" INTER_FWD [31:0] $end
$var wire 32 [" INTER_OR [31:0] $end
$var wire 32 \" INTER_XOR [31:0] $end
$var wire 5 ]" SELECT [4:0] $end
$var wire 32 ^" INTER_SUB [31:0] $end
$var wire 32 _" INTER_SRL [31:0] $end
$var wire 32 `" INTER_SRA [31:0] $end
$var wire 32 a" INTER_SLTU [31:0] $end
$var wire 32 b" INTER_SLT [31:0] $end
$var wire 32 c" INTER_SLL [31:0] $end
$var wire 32 d" INTER_REMU [31:0] $end
$var wire 32 e" INTER_REM [31:0] $end
$var wire 32 f" INTER_MULHU [31:0] $end
$var wire 32 g" INTER_MULHSU [31:0] $end
$var wire 32 h" INTER_MUL [31:0] $end
$var wire 32 i" INTER_DIV [31:0] $end
$var wire 32 j" INTER_ADD [31:0] $end
$var wire 32 k" DATA2 [31:0] $end
$var wire 32 l" DATA1 [31:0] $end
$var reg 32 m" RESULT [31:0] $end
$upscope $end
$scope module myBranchSelect $end
$var wire 4 n" SELECT [3:0] $end
$var wire 32 o" DATA2 [31:0] $end
$var wire 32 p" DATA1 [31:0] $end
$var wire 1 q" BNE $end
$var wire 1 r" BLTU $end
$var wire 1 s" BLT $end
$var wire 1 t" BGEU $end
$var wire 1 u" BGE $end
$var wire 1 v" BEQ $end
$var reg 1 +" MUX_OUT $end
$upscope $end
$scope module myControl $end
$var wire 32 w" INSTRUCTION [31:0] $end
$var wire 1 6 RESET $end
$var wire 1 x" funct3_mux_select $end
$var wire 1 | oparand_1_select $end
$var wire 1 { oparand_2_select $end
$var wire 1 w reg_file_write $end
$var wire 2 y" reg_write_select [1:0] $end
$var wire 7 z" opcode [6:0] $end
$var wire 3 {" main_mem_write [2:0] $end
$var wire 4 |" main_mem_read [3:0] $end
$var wire 4 }" immediate_select [3:0] $end
$var wire 7 ~" funct7 [6:0] $end
$var wire 3 !# funct3 [2:0] $end
$var wire 4 "# branch_control [3:0] $end
$var wire 5 ## alu_signal [4:0] $end
$scope module funct3_mux $end
$var wire 3 $# INPUT1 [2:0] $end
$var wire 3 %# INPUT2 [2:0] $end
$var wire 1 x" SELECT $end
$var reg 3 &# RESULT [2:0] $end
$upscope $end
$upscope $end
$scope module myImmediate $end
$var wire 32 '# INST [31:0] $end
$var wire 4 (# SELECT [3:0] $end
$var wire 5 )# TYPE6 [4:0] $end
$var wire 12 *# TYPE5 [11:0] $end
$var wire 12 +# TYPE4 [11:0] $end
$var wire 12 ,# TYPE3 [11:0] $end
$var wire 20 -# TYPE2 [19:0] $end
$var wire 20 .# TYPE1 [19:0] $end
$var reg 32 /# OUT [31:0] $end
$upscope $end
$scope module myStage3Fowarding $end
$var wire 5 0# ADDR1 [4:0] $end
$var wire 5 1# ADDR2 [4:0] $end
$var wire 1 2# MEM_WRITE $end
$var wire 1 A" OP1_MUX $end
$var wire 1 B" OP2_MUX $end
$var wire 5 3# STAGE_3_ADDR [4:0] $end
$var wire 1 L" STAGE_3_REGWRITE_EN $end
$var wire 5 4# STAGE_4_ADDR [4:0] $end
$var wire 1 M" STAGE_4_REGWRITE_EN $end
$var wire 5 5# STAGE_5_EXTRA_ADDR [4:0] $end
$var wire 1 N" STAGE_5_EXTRA_REGWRITE_EN $end
$var reg 2 6# OP1_MUX_OUT [1:0] $end
$var reg 2 7# OP2_MUX_OUT [1:0] $end
$upscope $end
$scope module myreg $end
$var wire 1 5 CLK $end
$var wire 5 8# INADDRESS [4:0] $end
$var wire 32 9# OUT1 [31:0] $end
$var wire 5 :# OUT1ADDRESS [4:0] $end
$var wire 32 ;# OUT2 [31:0] $end
$var wire 5 <# OUT2ADDRESS [4:0] $end
$var wire 1 6 RESET $end
$var wire 1 M" WRITE $end
$var wire 32 =# IN [31:0] $end
$var integer 32 ># i [31:0] $end
$upscope $end
$scope module oparand1_mux $end
$var wire 32 ?# INPUT2 [31:0] $end
$var wire 1 A" SELECT $end
$var wire 32 @# INPUT1 [31:0] $end
$var reg 32 A# RESULT [31:0] $end
$upscope $end
$scope module oparand1_mux_haz $end
$var wire 32 B# INPUT1 [31:0] $end
$var wire 32 C# INPUT2 [31:0] $end
$var wire 32 D# INPUT4 [31:0] $end
$var wire 2 E# SELECT [1:0] $end
$var wire 32 F# INPUT3 [31:0] $end
$var reg 32 G# RESULT [31:0] $end
$upscope $end
$scope module oparand2_mux $end
$var wire 32 H# INPUT2 [31:0] $end
$var wire 1 B" SELECT $end
$var wire 32 I# INPUT1 [31:0] $end
$var reg 32 J# RESULT [31:0] $end
$upscope $end
$scope module oparand2_mux_haz $end
$var wire 32 K# INPUT1 [31:0] $end
$var wire 32 L# INPUT2 [31:0] $end
$var wire 32 M# INPUT4 [31:0] $end
$var wire 2 N# SELECT [1:0] $end
$var wire 32 O# INPUT3 [31:0] $end
$var reg 32 P# RESULT [31:0] $end
$upscope $end
$scope module regWriteSelMUX $end
$var wire 32 Q# INPUT1 [31:0] $end
$var wire 32 R# INPUT2 [31:0] $end
$var wire 32 S# INPUT3 [31:0] $end
$var wire 32 T# INPUT4 [31:0] $end
$var wire 2 U# SELECT [1:0] $end
$var reg 32 V# RESULT [31:0] $end
$upscope $end
$scope module stage4_forward_unit $end
$var wire 5 W# REG_READ_ADDR2_S3 [4:0] $end
$var wire 5 X# STAGE4_REG_ADDR [4:0] $end
$var wire 32 Y# STAGE_3_DATA [31:0] $end
$var wire 1 Z# STAGE_3_MEM_WRITE $end
$var wire 1 [# STAGE_4_MEM_READ $end
$var reg 1 '" MUX_OUT $end
$upscope $end
$scope module stage4_forward_unit_mux $end
$var wire 32 \# INPUT1 [31:0] $end
$var wire 32 ]# INPUT2 [31:0] $end
$var wire 1 '" SELECT $end
$var reg 32 ^# RESULT [31:0] $end
$upscope $end
$upscope $end
$upscope $end
$enddefinitions $end
#0
$dumpvars
b0 ^#
b0 ]#
b0 \#
x[#
0Z#
bz Y#
b0 X#
bx W#
b0 V#
b0 U#
b0 T#
b0 S#
b0 R#
b0 Q#
b0 P#
b0 O#
b0 N#
bx M#
b0 L#
b0 K#
b0 J#
b0 I#
b0 H#
b0 G#
b0 F#
b0 E#
bx D#
b0 C#
b0 B#
b0 A#
b0 @#
b0 ?#
bx >#
b0 =#
b0 <#
bx ;#
b0 :#
bx 9#
b0 8#
b0 7#
b0 6#
bx 5#
b0 4#
b0 3#
02#
bx 1#
bx 0#
bx /#
b0 .#
b0 -#
b0 ,#
b0 +#
b0 *#
b0 )#
bx (#
b0 '#
b0 &#
b0 %#
b0 $#
bx000 ##
bx "#
b0 !#
b0 ~"
bx }"
bx |"
bx {"
b0 z"
bx y"
xx"
b0 w"
1v"
1u"
1t"
0s"
0r"
0q"
b0 p"
b0 o"
b0 n"
bx m"
b0 l"
b0 k"
bx j"
bx i"
bx h"
bx g"
bx f"
bx e"
bx d"
bx c"
bx b"
bx a"
bx `"
bx _"
bx ^"
b0 ]"
bx \"
bx ["
bx Z"
bx Y"
b0 X"
bx W"
b0 V"
bx U"
bx T"
bx S"
bx R"
b0 Q"
b0 P"
b0 O"
xN"
0M"
0L"
0K"
bx J"
b0 I"
b0 H"
b0 G"
b0 F"
b0 E"
b0 D"
b0 C"
0B"
0A"
b0 @"
b0 ?"
bx >"
b0 ="
b0 <"
b0 ;"
b0 :"
b0 9"
b0 8"
b0 7"
b0 6"
b0 5"
b0 4"
b0 3"
b0 2"
b11111111111111111111111111111100 1"
b0 0"
b0 /"
bx ."
bx000 -"
bx ,"
x+"
bx *"
bx )"
b0 ("
0'"
bx &"
bx %"
bx $"
bx #"
b0 ""
b0 !"
b0 ~
b0 }
x|
x{
b0 z
b0 y
b0 x
xw
bx v
b0 u
b0 t
bx s
xr
bx q
b0 p
b0 o
bx n
0m
bx l
b1000 k
xj
bx i
b0 h
bx g
xf
xe
b0 d
bx c
xb
bx a
bx `
bx _
x^
b11111111111111111111111111111100 ]
b111 \
b11 [
b1111111111111111111111111 Z
b100000000 Y
0X
bx W
0V
bx U
bx T
b1000 S
0R
b11111111111111111111111100000000 Q
xP
xO
b0 N
bx M
0L
xK
b0 J
b0 I
bx H
bx G
bx F
xE
bx D
xC
bx B
bx A
b0 @
b0 ?
b0 >
b0 =
b0 <
b0 ;
b0 :
b0 9
b0 8
x7
16
15
b0 4
03
bx 2
01
bx 0
0/
x.
bx -
bx ,
0+
x*
bx )
x(
bx '
b11111111111111111111111111111100 &
bx %
b0 $
0#
b0 "
b0 !
$end
#10
bx :#
bx <#
bx z"
bx !#
bx $#
bx ~"
bx .#
bx -#
bx ,#
bx +#
bx *#
bx )#
b11111111111111111111111111111100 C"
bx ;"
bx w"
bx '#
x2#
bx 0"
bx l"
bx A#
b0 ."
b0 W"
b0 m"
bx /"
bx k"
bx J#
bx ~
bx o"
bx I#
bx P#
xt"
xr"
xu"
xs"
xq"
xv"
bx ""
bx p"
bx @#
bx G#
xK"
bx O"
bx ?"
bx <"
xB"
xA"
bx000 4"
bx000 ]"
bx 5"
bx n"
b0 S"
b0 1#
b0 R"
b0 0#
bx :"
bx H#
bx 7"
bx K#
bx 6"
bx B#
bx ?
bx =
bx >
bx ;
bx 4
bx @
bx o
bx 2"
bx C#
bx L#
0[#
bx x
bx =#
bx F#
bx O#
bx V#
b0 >"
bx 9"
bx Q#
bx ]#
b0 Z"
b0 B
0C
0E
b0 `
0b
0N"
b0 J"
b0 5#
b0 U"
b0 D#
b0 M#
#20
bx Z"
bx B
xC
xE
b100000 >#
#40
0r
0+"
b0x a"
b0x b"
#100
05
#200
b0 x
b0 =#
b0 F#
b0 O#
b0 V#
b0 ?
b0 =
b0 >
b0 ;
02#
b0 0"
b0 l"
b0 A#
bx ."
bx W"
bx m"
b0 /"
b0 k"
b0 J#
1t"
0r"
1u"
0s"
0q"
1v"
b0 ~
b0 o"
b0 I#
b0 P#
b0 ""
b0 p"
b0 @#
b0 G#
b0 :#
b0 <#
b0 z"
b0 !#
b0 $#
b0 ~"
b0 .#
b0 -#
b0 ,#
b0 +#
b0 *#
b0 )#
b0 9"
b0 Q#
b0 ]#
b0 4
b0 @
b0 o
b0 2"
b0 C#
b0 L#
0K"
b0 O"
b0 ?"
0B"
0A"
b0 4"
b0 ]"
b0 <"
b0 5"
b0 n"
b0 :"
b0 H#
b0 7"
b0 K#
b0 6"
b0 B#
b0 C"
b0 ;"
b0 w"
b0 '#
15
#210
bx :#
bx <#
bx z"
bx !#
bx $#
bx ~"
bx .#
bx -#
bx ,#
bx +#
bx *#
bx )#
b11111111111111111111111111111100 C"
bx ;"
bx w"
bx '#
x2#
bx 0"
bx l"
bx A#
b0 ."
b0 W"
b0 m"
bx /"
bx k"
bx J#
bx ~
bx o"
bx I#
bx P#
xt"
xr"
xu"
xs"
xq"
xv"
bx ""
bx p"
bx @#
bx G#
xK"
bx O"
bx ?"
bx <"
xB"
xA"
bx000 4"
bx000 ]"
bx 5"
bx n"
bx :"
bx H#
bx 7"
bx K#
bx 6"
bx B#
bx ?
bx =
bx >
bx ;
b0 T"
b0 W#
bx 4
bx @
bx o
bx 2"
bx C#
bx L#
bx x
bx =#
bx F#
bx O#
bx V#
bx 9"
bx Q#
bx ]#
b0 B
0C
0E
b0 Z"
#220
bx Z"
bx B
xC
xE
#250
06
#300
05
#400
15
#410
b0 C"
bx S"
bx 1#
bx R"
bx 0#
b11111111111111111111111111111100 D"
b11111111111111111111111111111100 ?#
bx G"
xZ#
xR
xL
bx $
bx 9
bx p
bx ("
bx ^#
b0 ?
b0 =
b0 >
b0 ;
xL"
bx P"
bx !
bx :
bx u
bx @"
bx "
bx <
bx t
bx ="
bx 8"
bx \#
b0 4
b0 @
b0 o
b0 2"
b0 C#
b0 L#
bx 3"
bx R#
b1 d
0e
0.
1f
11
b100 z
b100 X"
b0 [
b0 \
b0 Z
1#
b100 y
b100 V"
b0 &
b0 ]
b0 1"
bx U"
bx D#
bx M#
#420
b0 B
0C
0E
b0 2
b0 g
b0 s
b0 i
#500
05
#600
1m
1/
0j
b0 0
b0 c
b0 l
1.
b1 d
b1 h
0#
15
#700
05
#800
15
#900
05
#1000
15
#1100
05
#1200
15
bx10010011 -
bx10010011 _
bx10010011 n
#1300
05
#1400
15
#1500
05
#1600
15
bx1000000010010011 -
bx1000000010010011 _
bx1000000010010011 n
#1700
05
#1800
15
#1900
05
#2000
15
bx111100001000000010010011 -
bx111100001000000010010011 _
bx111100001000000010010011 n
#2100
05
#2200
15
#2300
05
#2400
15
bx00000000111100001000000010010011 -
bx00000000111100001000000010010011 _
bx00000000111100001000000010010011 n
#2500
05
#2600
15
#2700
05
#2800
15
bx0110001100000000111100001000000010010011 -
bx0110001100000000111100001000000010010011 _
bx0110001100000000111100001000000010010011 n
#2900
05
#3000
15
#3100
05
#3200
15
bx100001000110001100000000111100001000000010010011 -
bx100001000110001100000000111100001000000010010011 _
bx100001000110001100000000111100001000000010010011 n
#3300
05
#3400
15
#3500
05
#3600
15
bx00100000100001000110001100000000111100001000000010010011 -
bx00100000100001000110001100000000111100001000000010010011 _
bx00100000100001000110001100000000111100001000000010010011 n
#3700
05
#3800
15
#3900
05
#4000
15
bx0000000000100000100001000110001100000000111100001000000010010011 -
bx0000000000100000100001000110001100000000111100001000000010010011 _
bx0000000000100000100001000110001100000000111100001000000010010011 n
#4100
05
#4200
15
#4300
05
#4400
15
bx000100110000000000100000100001000110001100000000111100001000000010010011 -
bx000100110000000000100000100001000110001100000000111100001000000010010011 _
bx000100110000000000100000100001000110001100000000111100001000000010010011 n
#4500
05
#4600
15
#4700
05
#4800
15
bx00000001000100110000000000100000100001000110001100000000111100001000000010010011 -
bx00000001000100110000000000100000100001000110001100000000111100001000000010010011 _
bx00000001000100110000000000100000100001000110001100000000111100001000000010010011 n
#4900
05
#5000
15
#5100
05
#5200
15
bx0001000100000001000100110000000000100000100001000110001100000000111100001000000010010011 -
bx0001000100000001000100110000000000100000100001000110001100000000111100001000000010010011 _
bx0001000100000001000100110000000000100000100001000110001100000000111100001000000010010011 n
#5300
05
#5400
15
#5500
05
#5600
15
bx000000000001000100000001000100110000000000100000100001000110001100000000111100001000000010010011 -
bx000000000001000100000001000100110000000000100000100001000110001100000000111100001000000010010011 _
bx000000000001000100000001000100110000000000100000100001000110001100000000111100001000000010010011 n
#5700
05
#5800
15
#5900
05
#6000
15
bx11101111000000000001000100000001000100110000000000100000100001000110001100000000111100001000000010010011 -
bx11101111000000000001000100000001000100110000000000100000100001000110001100000000111100001000000010010011 _
bx11101111000000000001000100000001000100110000000000100000100001000110001100000000111100001000000010010011 n
#6100
05
#6200
15
#6300
05
#6400
15
bx1111000111101111000000000001000100000001000100110000000000100000100001000110001100000000111100001000000010010011 -
bx1111000111101111000000000001000100000001000100110000000000100000100001000110001100000000111100001000000010010011 _
bx1111000111101111000000000001000100000001000100110000000000100000100001000110001100000000111100001000000010010011 n
#6500
05
#6600
15
#6700
05
#6800
15
bx010111111111000111101111000000000001000100000001000100110000000000100000100001000110001100000000111100001000000010010011 -
bx010111111111000111101111000000000001000100000001000100110000000000100000100001000110001100000000111100001000000010010011 _
bx010111111111000111101111000000000001000100000001000100110000000000100000100001000110001100000000111100001000000010010011 n
#6900
05
#7000
15
#7100
05
#7200
0.
b0 h
1j
b1 d
15
0m
0/
b11111111010111111111000111101111000000000001000100000001000100110000000000100000100001000110001100000000111100001000000010010011 -
b11111111010111111111000111101111000000000001000100000001000100110000000000100000100001000110001100000000111100001000000010010011 _
b11111111010111111111000111101111000000000001000100000001000100110000000000100000100001000110001100000000111100001000000010010011 n
#7210
0j
#7220
b111100001000000010010011 2
b111100001000000010010011 g
b111100001000000010010011 s
b11111111010111111111000111101111000000000001000100000001000100110000000000100000100001000110001100000000111100001000000010010011 i
b0 a
b111100001000000010010011 `
1b
#7229
1e
b0 d
1^
#7300
05
#7400
0f
0e
01
15
#7410
b1 :#
b1111 <#
b10011 z"
b0 !#
b0 $#
b0 ~"
b111100001000 .#
b111100001000 -#
b1111 ,#
b1 +#
b1 *#
b0 )#
b100 C"
b111100001000000010010011 ;"
b111100001000000010010011 w"
b111100001000000010010011 '#
b0 D"
b0 ?#
bx T"
bx W#
b11111111111111111111111111111100 E"
bx H"
bx 3#
x[#
b0 x
b0 =#
b0 F#
b0 O#
b0 V#
bx >"
xM"
bx Q"
bx U#
b0 3"
b0 R#
1e
1f
11
b1000 z
b1000 X"
b1 [
1#
b1000 y
b1000 V"
b100 &
b100 ]
b100 1"
#7420
b1000001000010001100011 2
b1000001000010001100011 g
b1000001000010001100011 s
#7430
b0 *"
b0 9#
b0 )"
b0 ;#
#7440
b1111 &"
b1111 /#
1{
b10 %"
b10 }"
b10 (#
0x"
1w
0|
b1 v
b1 y"
b0 ,"
b0 "#
b0 -"
b0 ##
b0 #"
b0 {"
b0 $"
b0 |"
#7500
05
#7600
0f
0e
01
0#
15
#7610
b10 <#
b1100011 z"
b10 &"
b10 /#
b1000001000 .#
b1000001000 -#
b10 ,#
b1000 +#
b1000 *#
b1000 C"
b1000001000010001100011 ;"
b1000001000010001100011 w"
b1000001000010001100011 '#
b0 0"
b0 l"
b0 A#
02#
bx ."
bx W"
bx m"
b1111 /"
b1111 k"
b1111 J#
1t"
0r"
1u"
0s"
0q"
1v"
b0 ~
b0 o"
b0 I#
b0 P#
b0 ""
b0 p"
b0 @#
b0 G#
1K"
b1 O"
b0 ?"
b0 <"
1B"
0A"
b0 4"
b0 ]"
b0 5"
b0 n"
b1111 S"
b1111 1#
b1 R"
b1 0#
b1111 :"
b1111 H#
b0 7"
b0 K#
b0 6"
b0 B#
b100 D"
b100 ?#
b1 G"
b0 E"
b11111111111111111111111111111100 x
b11111111111111111111111111111100 =#
b11111111111111111111111111111100 F#
b11111111111111111111111111111100 O#
b11111111111111111111111111111100 V#
b11111111111111111111111111111100 F"
b11111111111111111111111111111100 T#
bx I"
bx 4#
bx 8#
bx X#
1e
1f
11
b1100 z
b1100 X"
b10 [
1#
b1100 y
b1100 V"
b1000 &
b1000 ]
b1000 1"
xN"
b0 U"
b0 D#
b0 M#
#7620
b1111 Z"
b100010000000100010011 2
b100010000000100010011 g
b100010000000100010011 s
#7640
b1000 &"
b1000 /#
b1111 ."
b1111 W"
b1111 m"
b11 %"
b11 }"
b11 (#
0w
1x"
b1000 ,"
b1000 "#
1|
b1 a"
b1 b"
b1111 \"
b1111 ["
b0 Y"
b11111111111111111111111111110001 ^"
b1111 j"
#7650
b0 `"
b0 _"
b0 c"
#7690
b0 f"
b0 g"
b0 h"
#7700
05
#7800
0f
0e
01
0#
15
#7810
b10 :#
b1 <#
b10011 z"
b10 &"
b10 /#
b100010000 .#
b100010000 -#
b1 ,#
b10 +#
b10 *#
b1100 C"
b100010000000100010011 ;"
b100010000000100010011 w"
b100010000000100010011 '#
b1000 /"
b1000 k"
b1000 J#
0K"
1A"
b1000 5"
b1000 n"
b10 S"
b10 1#
b1000 :"
b1000 H#
b1000 D"
b1000 ?#
b1000 G"
b1000 0"
b1000 l"
b1000 A#
0Z#
b111111111111111111111111 Q
0R
0L
b0 $
b0 9
b0 p
b0 ("
b0 ^#
1q"
0v"
b1111 ""
b1111 p"
b1111 @#
b1111 G#
b11 ?
b11 =
b1 !"
b1 6#
b1 E#
1L"
b1 P"
b0 !
b0 :
b0 u
b0 @"
b0 "
b0 <
b0 t
b0 ="
b1111 T"
b1111 W#
b0 8"
b0 \#
b1111 4
b1111 @
b1111 o
b1111 2"
b1111 C#
b1111 L#
b100 E"
b1 H"
b1 3#
b0 x
b0 =#
b0 F#
b0 O#
b0 V#
b0 F"
b0 T#
1e
1f
11
b10000 z
b10000 X"
b11 [
1#
b10000 y
b10000 V"
b1100 &
b1100 ]
b1100 1"
bx J"
bx 5#
b11111111111111111111111111111100 U"
b11111111111111111111111111111100 D#
b11111111111111111111111111111100 M#
#7820
b1000 Z"
b11111111010111111111000111101111 2
b11111111010111111111000111101111 g
b11111111010111111111000111101111 s
#7840
b1 &"
b1 /#
b10000 ."
b10000 W"
b10000 m"
b10 %"
b10 }"
b10 (#
1w
0x"
b0 ,"
b0 "#
0|
b1000 ["
b0 a"
b0 b"
b0 \"
b1000 Y"
b0 ^"
b10000 j"
#7850
b100000000000 c"
#7890
b0 d"
b0 e"
b1 i"
b1000000 f"
b1000000 g"
b1000000 h"
#7900
05
#8000
0f
0e
01
0#
15
