cpu/build/cpu_wavedata.vcd
$date
	Thu Sep  9 16:53:25 2021
$end
$version
	Icarus Verilog
$end
$timescale
	100ps
$end
$scope module testbenchCPU $end
$var wire 3 ! memWrite [2:0] $end
$var wire 4 " memRead [3:0] $end
$var wire 1 # insReadEn $end
$var wire 32 $ WRITE_DATA [31:0] $end
$var wire 32 % READ_DATA [31:0] $end
$var wire 32 & PC [31:0] $end
$var wire 128 ' MAIN_MEM_WRITE_DATA [127:0] $end
$var wire 1 ( MAIN_MEM_WRITE $end
$var wire 128 ) MAIN_MEM_READ_DATA [127:0] $end
$var wire 1 * MAIN_MEM_READ $end
$var wire 1 + MAIN_MEM_BUSY_WAIT $end
$var wire 28 , MAIN_MEM_ADDRESS [27:0] $end
$var wire 128 - INS_MEM_READ_DATA [127:0] $end
$var wire 1 . INS_MEM_READ $end
$var wire 1 / INS_MEM_BUSY_WAIT $end
$var wire 28 0 INS_MEM_ADDRESS [27:0] $end
$var wire 1 1 INS_CACHE_BUSY_WAIT $end
$var wire 32 2 INS [31:0] $end
$var wire 1 3 BUSY_WAIT $end
$var wire 32 4 ADDRESS [31:0] $end
$var reg 1 5 CLK $end
$var reg 1 6 RESET $end
$scope module myCacheMemory $end
$var wire 1 7 TAG_MATCH $end
$var wire 128 8 block [127:0] $end
$var wire 1 5 clock $end
$var wire 1 6 reset $end
$var wire 32 9 writedata [31:0] $end
$var wire 3 : write [2:0] $end
$var wire 25 ; tag [24:0] $end
$var wire 4 < read [3:0] $end
$var wire 2 = offset [1:0] $end
$var wire 3 > index [2:0] $end
$var wire 2 ? byte_offset [1:0] $end
$var wire 32 @ address [31:0] $end
$var wire 128 A MAIN_MEM_READ_DATA [127:0] $end
$var wire 1 + MAIN_MEM_BUSY_WAIT $end
$var reg 128 B CURRENT_DATA [127:0] $end
$var reg 1 C CURRENT_DIRTY $end
$var reg 25 D CURRENT_TAG [24:0] $end
$var reg 1 E CURRENT_VALID $end
$var reg 28 F MAIN_MEM_ADDRESS [27:0] $end
$var reg 1 * MAIN_MEM_READ $end
$var reg 1 ( MAIN_MEM_WRITE $end
$var reg 128 G MAIN_MEM_WRITE_DATA [127:0] $end
$var reg 1 3 busywait $end
$var reg 32 H cache_readdata [31:0] $end
$var reg 32 I cache_writedata [31:0] $end
$var reg 2 J next_state [1:0] $end
$var reg 1 K readCache $end
$var reg 1 L readaccess $end
$var reg 32 M readdata [31:0] $end
$var reg 2 N state [1:0] $end
$var reg 1 O writeCache $end
$var reg 1 P writeCache_mem $end
$var reg 32 Q write_mask [31:0] $end
$var reg 1 R writeaccess $end
$var integer 32 S i [31:0] $end
$upscope $end
$scope module myDataMem $end
$var wire 28 T address [27:0] $end
$var wire 1 5 clock $end
$var wire 1 * read $end
$var wire 1 6 reset $end
$var wire 1 ( write $end
$var wire 128 U writedata [127:0] $end
$var reg 1 + busywait $end
$var reg 1 V readaccess $end
$var reg 128 W readdata [127:0] $end
$var reg 1 X writeaccess $end
$var integer 32 Y i [31:0] $end
$upscope $end
$scope module myInsCacheMemory $end
$var wire 1 Z TAG_MATCH $end
$var wire 1 5 clock $end
$var wire 1 6 reset $end
$var wire 3 [ tag [2:0] $end
$var wire 1 # read $end
$var wire 2 \ offset [1:0] $end
$var wire 3 ] index [2:0] $end
$var wire 32 ^ address [31:0] $end
$var wire 128 _ MAIN_MEM_READ_DATA [127:0] $end
$var wire 1 / MAIN_MEM_BUSY_WAIT $end
$var reg 32 ` CURRENT_DATA [31:0] $end
$var reg 3 a CURRENT_TAG [2:0] $end
$var reg 1 b CURRENT_VALID $end
$var reg 28 c MAIN_MEM_ADDRESS [27:0] $end
$var reg 1 . MAIN_MEM_READ $end
$var reg 1 1 busywait $end
$var reg 2 d next_state [1:0] $end
$var reg 1 e readCache $end
$var reg 1 f readaccess $end
$var reg 32 g readdata [31:0] $end
$var reg 2 h state [1:0] $end
$var reg 128 i temp [127:0] $end
$var reg 1 j writeCache_mem $end
$var integer 32 k i [31:0] $end
$upscope $end
$scope module myInsMem $end
$var wire 28 l address [27:0] $end
$var wire 1 5 clock $end
$var wire 1 . read $end
$var reg 1 / busywait $end
$var reg 1 m readaccess $end
$var reg 128 n readdata [127:0] $end
$upscope $end
$scope module mycpu $end
$var wire 1 5 CLK $end
$var wire 32 o DATA_CACHE_ADDR [31:0] $end
$var wire 1 3 DATA_CACHE_BUSY_WAIT $end
$var wire 32 p DATA_CACHE_DATA [31:0] $end
$var wire 32 q DATA_CACHE_READ_DATA [31:0] $end
$var wire 32 r INSTRUCTION [31:0] $end
$var wire 1 1 INS_CACHE_BUSY_WAIT $end
$var wire 1 6 RESET $end
$var wire 4 s memReadEn [3:0] $end
$var wire 3 t memWriteEn [2:0] $end
$var wire 2 u REG_WRITE_SELECT_S2 [1:0] $end
$var wire 1 v REG_WRITE_EN_S2 $end
$var wire 32 w REG_WRITE_DATA [31:0] $end
$var wire 32 x PC_PLUS_4 [31:0] $end
$var wire 32 y PC_NEXT [31:0] $end
$var wire 1 z OPERAND2_SEL $end
$var wire 1 { OPERAND1_SEL $end
$var wire 2 | OP2_HAZ_MUX_SEL [1:0] $end
$var wire 32 } OP2_HAZ_MUX_OUT [31:0] $end
$var wire 2 ~ OP1_HAZ_MUX_SEL [1:0] $end
$var wire 32 !" OP1_HAZ_MUX_OUT [31:0] $end
$var wire 3 "" MEM_WRITE_S2 [2:0] $end
$var wire 4 #" MEM_READ_S2 [3:0] $end
$var wire 4 $" IMMEDIATE_SELECT [3:0] $end
$var wire 32 %" IMMEDIATE_OUT_S2 [31:0] $end
$var wire 1 &" HAZ_MUX_SEL $end
$var wire 32 '" HAZ_MUX_OUT [31:0] $end
$var wire 32 (" DATA2_S2 [31:0] $end
$var wire 32 )" DATA1_S2 [31:0] $end
$var wire 1 *" BRANCH_SELECT_OUT $end
$var wire 4 +" BRANCH_SELECT [3:0] $end
$var wire 5 ," ALU_SELECT [4:0] $end
$var wire 32 -" ALU_OUT [31:0] $end
$var wire 32 ." ALU_IN_2 [31:0] $end
$var wire 32 /" ALU_IN_1 [31:0] $end
$var reg 32 0" PC [31:0] $end
$var reg 32 1" PR_ALU_OUT_S3 [31:0] $end
$var reg 32 2" PR_ALU_OUT_S4 [31:0] $end
$var reg 5 3" PR_ALU_SELECT [4:0] $end
$var reg 4 4" PR_BRANCH_SELECT_S2 [3:0] $end
$var reg 32 5" PR_DATA_1_S2 [31:0] $end
$var reg 32 6" PR_DATA_2_S2 [31:0] $end
$var reg 32 7" PR_DATA_2_S3 [31:0] $end
$var reg 32 8" PR_DATA_CACHE_OUT [31:0] $end
$var reg 32 9" PR_IMMEDIATE_SELECT_OUT [31:0] $end
$var reg 32 :" PR_INSTRUCTION [31:0] $end
$var reg 4 ;" PR_MEM_READ_S2 [3:0] $end
$var reg 4 <" PR_MEM_READ_S3 [3:0] $end
$var reg 4 =" PR_MEM_READ_S4 [3:0] $end
$var reg 3 >" PR_MEM_WRITE_S2 [2:0] $end
$var reg 3 ?" PR_MEM_WRITE_S3 [2:0] $end
$var reg 1 @" PR_OPERAND1_SEL $end
$var reg 1 A" PR_OPERAND2_SEL $end
$var reg 32 B" PR_PC_S1 [31:0] $end
$var reg 32 C" PR_PC_S2 [31:0] $end
$var reg 32 D" PR_PC_S3 [31:0] $end
$var reg 32 E" PR_PC_S4 [31:0] $end
$var reg 5 F" PR_REGISTER_WRITE_ADDR_S2 [4:0] $end
$var reg 5 G" PR_REGISTER_WRITE_ADDR_S3 [4:0] $end
$var reg 5 H" PR_REGISTER_WRITE_ADDR_S4 [4:0] $end
$var reg 5 I" PR_REGISTER_WRITE_ADDR_S5 [4:0] $end
$var reg 1 J" PR_REG_WRITE_EN_S2 $end
$var reg 1 K" PR_REG_WRITE_EN_S3 $end
$var reg 1 L" PR_REG_WRITE_EN_S4 $end
$var reg 1 M" PR_REG_WRITE_EN_S5 $end
$var reg 2 N" PR_REG_WRITE_SELECT_S2 [1:0] $end
$var reg 2 O" PR_REG_WRITE_SELECT_S3 [1:0] $end
$var reg 2 P" PR_REG_WRITE_SELECT_S4 [1:0] $end
$var reg 5 Q" REG_READ_ADDR1_S2 [4:0] $end
$var reg 5 R" REG_READ_ADDR2_S2 [4:0] $end
$var reg 5 S" REG_READ_ADDR2_S3 [4:0] $end
$var reg 32 T" REG_WRITE_DATA_S5 [31:0] $end
$var reg 1 # insReadEn $end
$scope module muxjump $end
$var wire 32 U" INPUT1 [31:0] $end
$var wire 1 *" SELECT $end
$var wire 32 V" INPUT2 [31:0] $end
$var reg 32 W" RESULT [31:0] $end
$upscope $end
$scope module myAlu $end
$var wire 32 X" INTER_AND [31:0] $end
$var wire 32 Y" INTER_FWD [31:0] $end
$var wire 32 Z" INTER_OR [31:0] $end
$var wire 32 [" INTER_XOR [31:0] $end
$var wire 5 \" SELECT [4:0] $end
$var wire 32 ]" INTER_SUB [31:0] $end
$var wire 32 ^" INTER_SRL [31:0] $end
$var wire 32 _" INTER_SRA [31:0] $end
$var wire 32 `" INTER_SLTU [31:0] $end
$var wire 32 a" INTER_SLT [31:0] $end
$var wire 32 b" INTER_SLL [31:0] $end
$var wire 32 c" INTER_REMU [31:0] $end
$var wire 32 d" INTER_REM [31:0] $end
$var wire 32 e" INTER_MULHU [31:0] $end
$var wire 32 f" INTER_MULHSU [31:0] $end
$var wire 32 g" INTER_MUL [31:0] $end
$var wire 32 h" INTER_DIV [31:0] $end
$var wire 32 i" INTER_ADD [31:0] $end
$var wire 32 j" DATA2 [31:0] $end
$var wire 32 k" DATA1 [31:0] $end
$var reg 32 l" RESULT [31:0] $end
$upscope $end
$scope module myBranchSelect $end
$var wire 4 m" SELECT [3:0] $end
$var wire 32 n" DATA2 [31:0] $end
$var wire 32 o" DATA1 [31:0] $end
$var wire 1 p" BNE $end
$var wire 1 q" BLTU $end
$var wire 1 r" BLT $end
$var wire 1 s" BGEU $end
$var wire 1 t" BGE $end
$var wire 1 u" BEQ $end
$var reg 1 *" MUX_OUT $end
$upscope $end
$scope module myControl $end
$var wire 32 v" INSTRUCTION [31:0] $end
$var wire 1 6 RESET $end
$var wire 1 w" funct3_mux_select $end
$var wire 1 { oparand_1_select $end
$var wire 1 z oparand_2_select $end
$var wire 1 v reg_file_write $end
$var wire 2 x" reg_write_select [1:0] $end
$var wire 7 y" opcode [6:0] $end
$var wire 3 z" main_mem_write [2:0] $end
$var wire 4 {" main_mem_read [3:0] $end
$var wire 4 |" immediate_select [3:0] $end
$var wire 7 }" funct7 [6:0] $end
$var wire 3 ~" funct3 [2:0] $end
$var wire 4 !# branch_control [3:0] $end
$var wire 5 "# alu_signal [4:0] $end
$scope module funct3_mux $end
$var wire 3 ## INPUT1 [2:0] $end
$var wire 3 $# INPUT2 [2:0] $end
$var wire 1 w" SELECT $end
$var reg 3 %# RESULT [2:0] $end
$upscope $end
$upscope $end
$scope module myImmediate $end
$var wire 32 &# INST [31:0] $end
$var wire 4 '# SELECT [3:0] $end
$var wire 5 (# TYPE6 [4:0] $end
$var wire 12 )# TYPE5 [11:0] $end
$var wire 12 *# TYPE4 [11:0] $end
$var wire 12 +# TYPE3 [11:0] $end
$var wire 20 ,# TYPE2 [19:0] $end
$var wire 20 -# TYPE1 [19:0] $end
$var reg 32 .# OUT [31:0] $end
$upscope $end
$scope module myStage3Fowarding $end
$var wire 5 /# ADDR1 [4:0] $end
$var wire 5 0# ADDR2 [4:0] $end
$var wire 1 1# MEM_WRITE $end
$var wire 1 @" OP1_MUX $end
$var wire 1 A" OP2_MUX $end
$var wire 5 2# STAGE_3_ADDR [4:0] $end
$var wire 1 K" STAGE_3_REGWRITE_EN $end
$var wire 5 3# STAGE_4_ADDR [4:0] $end
$var wire 1 L" STAGE_4_REGWRITE_EN $end
$var wire 5 4# STAGE_5_EXTRA_ADDR [4:0] $end
$var wire 1 M" STAGE_5_EXTRA_REGWRITE_EN $end
$var reg 2 5# OP1_MUX_OUT [1:0] $end
$var reg 2 6# OP2_MUX_OUT [1:0] $end
$upscope $end
$scope module myreg $end
$var wire 1 5 CLK $end
$var wire 5 7# INADDRESS [4:0] $end
$var wire 32 8# OUT1 [31:0] $end
$var wire 5 9# OUT1ADDRESS [4:0] $end
$var wire 32 :# OUT2 [31:0] $end
$var wire 5 ;# OUT2ADDRESS [4:0] $end
$var wire 1 6 RESET $end
$var wire 1 L" WRITE $end
$var wire 32 <# IN [31:0] $end
$var integer 32 =# i [31:0] $end
$upscope $end
$scope module oparand1_mux $end
$var wire 32 ># INPUT2 [31:0] $end
$var wire 1 @" SELECT $end
$var wire 32 ?# INPUT1 [31:0] $end
$var reg 32 @# RESULT [31:0] $end
$upscope $end
$scope module oparand1_mux_haz $end
$var wire 32 A# INPUT1 [31:0] $end
$var wire 32 B# INPUT2 [31:0] $end
$var wire 32 C# INPUT4 [31:0] $end
$var wire 2 D# SELECT [1:0] $end
$var wire 32 E# INPUT3 [31:0] $end
$var reg 32 F# RESULT [31:0] $end
$upscope $end
$scope module oparand2_mux $end
$var wire 32 G# INPUT2 [31:0] $end
$var wire 1 A" SELECT $end
$var wire 32 H# INPUT1 [31:0] $end
$var reg 32 I# RESULT [31:0] $end
$upscope $end
$scope module oparand2_mux_haz $end
$var wire 32 J# INPUT1 [31:0] $end
$var wire 32 K# INPUT2 [31:0] $end
$var wire 32 L# INPUT4 [31:0] $end
$var wire 2 M# SELECT [1:0] $end
$var wire 32 N# INPUT3 [31:0] $end
$var reg 32 O# RESULT [31:0] $end
$upscope $end
$scope module regWriteSelMUX $end
$var wire 32 P# INPUT1 [31:0] $end
$var wire 32 Q# INPUT2 [31:0] $end
$var wire 32 R# INPUT3 [31:0] $end
$var wire 32 S# INPUT4 [31:0] $end
$var wire 2 T# SELECT [1:0] $end
$var reg 32 U# RESULT [31:0] $end
$upscope $end
$scope module stage4_forward_unit $end
$var wire 5 V# REG_READ_ADDR2_S3 [4:0] $end
$var wire 5 W# STAGE4_REG_ADDR [4:0] $end
$var wire 32 X# STAGE_3_DATA [31:0] $end
$var wire 1 Y# STAGE_3_MEM_WRITE $end
$var wire 1 Z# STAGE_4_MEM_READ $end
$var reg 1 &" MUX_OUT $end
$upscope $end
$scope module stage4_forward_unit_mux $end
$var wire 32 [# INPUT1 [31:0] $end
$var wire 32 \# INPUT2 [31:0] $end
$var wire 1 &" SELECT $end
$var reg 32 ]# RESULT [31:0] $end
$upscope $end
$upscope $end
$upscope $end
$enddefinitions $end
#0
$dumpvars
b0 ]#
b0 \#
b0 [#
xZ#
0Y#
bz X#
b0 W#
bx V#
b0 U#
b0 T#
b0 S#
b0 R#
b0 Q#
b0 P#
b0 O#
b0 N#
b0 M#
bx L#
b0 K#
b0 J#
b0 I#
b0 H#
b0 G#
b0 F#
b0 E#
b0 D#
bx C#
b0 B#
b0 A#
b0 @#
b0 ?#
b0 >#
bx =#
b0 <#
b0 ;#
bx :#
b0 9#
bx 8#
b0 7#
b0 6#
b0 5#
bx 4#
b0 3#
b0 2#
01#
bx 0#
bx /#
bx .#
b0 -#
b0 ,#
b0 +#
b0 *#
b0 )#
b0 (#
bx '#
b0 &#
b0 %#
b0 $#
b0 ##
bx000 "#
bx !#
b0 ~"
b0 }"
bx |"
bx {"
bx z"
b0 y"
bx x"
xw"
b0 v"
1u"
1t"
1s"
0r"
0q"
0p"
b0 o"
b0 n"
b0 m"
bx l"
b0 k"
b0 j"
bx i"
bx h"
bx g"
bx f"
bx e"
bx d"
bx c"
bx b"
bx a"
bx `"
bx _"
bx ^"
bx ]"
b0 \"
bx ["
bx Z"
bx Y"
bx X"
b0 W"
bx V"
b0 U"
bx T"
bx S"
bx R"
bx Q"
b0 P"
b0 O"
b0 N"
xM"
0L"
0K"
0J"
bx I"
b0 H"
b0 G"
b0 F"
b0 E"
b0 D"
b0 C"
b0 B"
0A"
0@"
b0 ?"
b0 >"
bx ="
b0 <"
b0 ;"
b0 :"
b0 9"
b0 8"
b0 7"
b0 6"
b0 5"
b0 4"
b0 3"
b0 2"
b0 1"
b11111111111111111111111111111100 0"
b0 /"
b0 ."
bx -"
bx000 ,"
bx +"
x*"
bx )"
bx ("
b0 '"
0&"
bx %"
bx $"
bx #"
bx ""
b0 !"
b0 ~
b0 }
b0 |
x{
xz
b0 y
b0 x
b0 w
xv
bx u
b0 t
b0 s
bx r
bx q
b0 p
b0 o
bx n
0m
bx l
b1000 k
xj
bx i
b0 h
bx g
xf
xe
b0 d
bx c
xb
bx a
bx `
bx _
b11111111111111111111111111111100 ^
b111 ]
b11 \
b111 [
xZ
b100000000 Y
0X
bx W
0V
bx U
bx T
b1000 S
0R
b11111111111111111111111100000000 Q
xP
xO
b0 N
bx M
0L
xK
b0 J
b0 I
bx H
bx G
bx F
xE
bx D
xC
bx B
bx A
b0 @
b0 ?
b0 >
b0 =
b0 <
b0 ;
b0 :
b0 9
b0 8
x7
16
15
b0 4
03
bx 2
01
bx 0
0/
x.
bx -
bx ,
0+
x*
bx )
x(
bx '
b11111111111111111111111111111100 &
bx %
b0 $
0#
b0 "
b0 !
$end
#10
bx 9#
bx ;#
bx y"
bx ~"
bx ##
bx }"
bx -#
bx ,#
bx +#
bx *#
bx )#
bx (#
b11111111111111111111111111111100 B"
bx :"
bx v"
bx &#
x1#
bx /"
bx k"
bx @#
b0 -"
b0 V"
b0 l"
bx ."
bx j"
bx I#
bx }
bx n"
bx H#
bx O#
xs"
xq"
xt"
xr"
xp"
xu"
bx !"
bx o"
bx ?#
bx F#
xJ"
bx N"
bx >"
bx ;"
xA"
x@"
bx000 3"
bx000 \"
bx 4"
bx m"
b0 R"
b0 0#
b0 Q"
b0 /#
bx 9"
bx G#
bx 6"
bx J#
bx 5"
bx A#
bx ?
bx =
bx >
bx ;
bx 4
bx @
bx o
bx 1"
bx B#
bx K#
0Z#
bx w
bx <#
bx E#
bx N#
bx U#
b0 ="
bx 8"
bx P#
bx \#
b0 Y"
b0 B
0C
0E
b0 `
0b
0M"
b0 I"
b0 4#
b0 T"
b0 C#
b0 L#
#20
bx Y"
bx B
xC
xE
b100000 =#
#40
0*"
b0x `"
b0x a"
#100
05
#200
b0 w
b0 <#
b0 E#
b0 N#
b0 U#
b0 ?
b0 =
b0 >
b0 ;
01#
b0 /"
b0 k"
b0 @#
bx -"
bx V"
bx l"
b0 ."
b0 j"
b0 I#
1s"
0q"
1t"
0r"
0p"
1u"
b0 }
b0 n"
b0 H#
b0 O#
b0 !"
b0 o"
b0 ?#
b0 F#
b0 9#
b0 ;#
b0 y"
b0 ~"
b0 ##
b0 }"
b0 -#
b0 ,#
b0 +#
b0 *#
b0 )#
b0 (#
b0 8"
b0 P#
b0 \#
b0 4
b0 @
b0 o
b0 1"
b0 B#
b0 K#
0J"
b0 N"
b0 >"
0A"
0@"
b0 3"
b0 \"
b0 ;"
b0 4"
b0 m"
b0 9"
b0 G#
b0 6"
b0 J#
b0 5"
b0 A#
b0 B"
b0 :"
b0 v"
b0 &#
15
#210
bx 9#
bx ;#
bx y"
bx ~"
bx ##
bx }"
bx -#
bx ,#
bx +#
bx *#
bx )#
bx (#
b11111111111111111111111111111100 B"
bx :"
bx v"
bx &#
x1#
bx /"
bx k"
bx @#
b0 -"
b0 V"
b0 l"
bx ."
bx j"
bx I#
bx }
bx n"
bx H#
bx O#
xs"
xq"
xt"
xr"
xp"
xu"
bx !"
bx o"
bx ?#
bx F#
xJ"
bx N"
bx >"
bx ;"
xA"
x@"
bx000 3"
bx000 \"
bx 4"
bx m"
bx 9"
bx G#
bx 6"
bx J#
bx 5"
bx A#
bx ?
bx =
bx >
bx ;
b0 S"
b0 V#
bx 4
bx @
bx o
bx 1"
bx B#
bx K#
bx w
bx <#
bx E#
bx N#
bx U#
bx 8"
bx P#
bx \#
b0 B
0C
0E
b0 Y"
#220
bx Y"
bx B
xC
xE
#250
06
#300
05
#400
15
#410
b0 B"
bx R"
bx 0#
bx Q"
bx /#
b11111111111111111111111111111100 C"
b11111111111111111111111111111100 >#
bx F"
xY#
xR
xL
bx $
bx 9
bx p
bx '"
bx ]#
b0 ?
b0 =
b0 >
b0 ;
xK"
bx O"
bx !
bx :
bx t
bx ?"
bx "
bx <
bx s
bx <"
bx 7"
bx [#
b0 4
b0 @
b0 o
b0 1"
b0 B#
b0 K#
bx 2"
bx Q#
b1 d
0e
0.
1f
11
b100 y
b100 W"
b0 \
b0 ]
b0 [
1#
b100 x
b100 U"
b0 &
b0 ^
b0 0"
bx T"
bx C#
bx L#
#420
b0 B
0C
0E
b0 2
b0 g
b0 r
b0 i
#500
05
#600
1m
1/
0j
b0 0
b0 c
b0 l
1.
b1 d
b1 h
0#
15
#700
05
#800
15
#900
05
#1000
15
#1100
05
#1200
15
bx00010011 -
bx00010011 _
bx00010011 n
#1300
05
#1400
15
#1500
05
#1600
15
bx0000000000010011 -
bx0000000000010011 _
bx0000000000010011 n
#1700
05
#1800
15
#1900
05
#2000
15
bx010100000000000000010011 -
bx010100000000000000010011 _
bx010100000000000000010011 n
#2100
05
#2200
15
#2300
05
#2400
15
bx00000000010100000000000000010011 -
bx00000000010100000000000000010011 _
bx00000000010100000000000000010011 n
#2500
05
#2600
15
#2700
05
#2800
15
bx1001001100000000010100000000000000010011 -
bx1001001100000000010100000000000000010011 _
bx1001001100000000010100000000000000010011 n
#2900
05
#3000
15
#3100
05
#3200
15
bx100000001001001100000000010100000000000000010011 -
bx100000001001001100000000010100000000000000010011 _
bx100000001001001100000000010100000000000000010011 n
#3300
05
#3400
15
#3500
05
#3600
15
bx00000000100000001001001100000000010100000000000000010011 -
bx00000000100000001001001100000000010100000000000000010011 _
bx00000000100000001001001100000000010100000000000000010011 n
#3700
05
#3800
15
#3900
05
#4000
15
bx0000000000000000100000001001001100000000010100000000000000010011 -
bx0000000000000000100000001001001100000000010100000000000000010011 _
bx0000000000000000100000001001001100000000010100000000000000010011 n
#4100
05
#4200
15
#4300
05
#4400
15
bx011000110000000000000000100000001001001100000000010100000000000000010011 -
bx011000110000000000000000100000001001001100000000010100000000000000010011 _
bx011000110000000000000000100000001001001100000000010100000000000000010011 n
#4500
05
#4600
15
#4700
05
#4800
15
bx00001010011000110000000000000000100000001001001100000000010100000000000000010011 -
bx00001010011000110000000000000000100000001001001100000000010100000000000000010011 _
bx00001010011000110000000000000000100000001001001100000000010100000000000000010011 n
#4900
05
#5000
15
#5100
05
#5200
15
bx0001000000001010011000110000000000000000100000001001001100000000010100000000000000010011 -
bx0001000000001010011000110000000000000000100000001001001100000000010100000000000000010011 _
bx0001000000001010011000110000000000000000100000001001001100000000010100000000000000010011 n
#5300
05
#5400
15
#5500
05
#5600
15
bx000000000001000000001010011000110000000000000000100000001001001100000000010100000000000000010011 -
bx000000000001000000001010011000110000000000000000100000001001001100000000010100000000000000010011 _
bx000000000001000000001010011000110000000000000000100000001001001100000000010100000000000000010011 n
#5700
05
#5800
15
#5900
05
#6000
15
bx00000000000000000001000000001010011000110000000000000000100000001001001100000000010100000000000000010011 -
bx00000000000000000001000000001010011000110000000000000000100000001001001100000000010100000000000000010011 _
bx00000000000000000001000000001010011000110000000000000000100000001001001100000000010100000000000000010011 n
#6100
05
#6200
15
#6300
05
#6400
15
bx0000000000000000000000000001000000001010011000110000000000000000100000001001001100000000010100000000000000010011 -
bx0000000000000000000000000001000000001010011000110000000000000000100000001001001100000000010100000000000000010011 _
bx0000000000000000000000000001000000001010011000110000000000000000100000001001001100000000010100000000000000010011 n
#6500
05
#6600
15
#6700
05
#6800
15
bx000000000000000000000000000000000001000000001010011000110000000000000000100000001001001100000000010100000000000000010011 -
bx000000000000000000000000000000000001000000001010011000110000000000000000100000001001001100000000010100000000000000010011 _
bx000000000000000000000000000000000001000000001010011000110000000000000000100000001001001100000000010100000000000000010011 n
#6900
05
#7000
15
#7100
05
#7200
0.
b0 h
1j
b1 d
15
0m
0/
b1000000001010011000110000000000000000100000001001001100000000010100000000000000010011 -
b1000000001010011000110000000000000000100000001001001100000000010100000000000000010011 _
b1000000001010011000110000000000000000100000001001001100000000010100000000000000010011 n
#7210
0j
#7220
b10100000000000000010011 2
b10100000000000000010011 g
b10100000000000000010011 r
b1000000001010011000110000000000000000100000001001001100000000010100000000000000010011 i
b0 a
b10100000000000000010011 `
1b
#7229
1e
b0 d
1Z
#7300
05
#7400
0f
0e
01
15
#7410
b0 9#
b101 ;#
b10011 y"
b0 ~"
b0 ##
b0 }"
b10100000000 -#
b10100000000 ,#
b101 +#
b0 *#
b0 )#
b0 (#
b100 B"
b10100000000000000010011 :"
b10100000000000000010011 v"
b10100000000000000010011 &#
b0 C"
b0 >#
bx S"
bx V#
b11111111111111111111111111111100 D"
bx G"
bx 2#
xZ#
b0 w
b0 <#
b0 E#
b0 N#
b0 U#
bx ="
xL"
bx P"
bx T#
b0 2"
b0 Q#
1e
1f
11
b1000 y
b1000 W"
b1 \
1#
b1000 x
b1000 U"
b100 &
b100 ^
b100 0"
#7420
b1000000010010011 2
b1000000010010011 g
b1000000010010011 r
#7430
b0 )"
b0 8#
b0 ("
b0 :#
#7440
b101 %"
b101 .#
1z
b10 $"
b10 |"
b10 '#
0w"
1v
0{
b1 u
b1 x"
b0 +"
b0 !#
b0 ,"
b0 "#
b0 ""
b0 z"
b0 #"
b0 {"
#7500
05
#7600
0f
0e
01
0#
15
#7610
b1 9#
b0 ;#
b0 %"
b0 .#
b1000 -#
b1000 ,#
b0 +#
b1 *#
b1 )#
b1000 B"
b1000000010010011 :"
b1000000010010011 v"
b1000000010010011 &#
b0 /"
b0 k"
b0 @#
01#
bx -"
bx V"
bx l"
b101 ."
b101 j"
b101 I#
1s"
0q"
1t"
0r"
0p"
1u"
b0 }
b0 n"
b0 H#
b0 O#
b0 !"
b0 o"
b0 ?#
b0 F#
1J"
b1 N"
b0 >"
b0 ;"
1A"
0@"
b0 3"
b0 \"
b0 4"
b0 m"
b101 R"
b101 0#
b0 Q"
b0 /#
b101 9"
b101 G#
b0 6"
b0 J#
b0 5"
b0 A#
b100 C"
b100 >#
b0 F"
b0 D"
b11111111111111111111111111111100 w
b11111111111111111111111111111100 <#
b11111111111111111111111111111100 E#
b11111111111111111111111111111100 N#
b11111111111111111111111111111100 U#
b11111111111111111111111111111100 E"
b11111111111111111111111111111100 S#
bx H"
bx 3#
bx 7#
bx W#
1e
1f
11
b1100 y
b1100 W"
b10 \
1#
b1100 x
b1100 U"
b1000 &
b1000 ^
b1000 0"
xM"
b0 T"
b0 C#
b0 L#
#7620
b101 Y"
b100000000101001100011 2
b100000000101001100011 g
b100000000101001100011 r
#7640
b101 -"
b101 V"
b101 l"
b1 `"
b1 a"
b101 ["
b101 Z"
b0 X"
b11111111111111111111111111111011 ]"
b101 i"
#7650
b0 _"
b0 ^"
b0 b"
#7690
b0 e"
b0 f"
b0 g"
#7700
05
#7800
0f
0e
01
0#
15
#7810
b0 9#
b1 ;#
b1100011 y"
b1 %"
b1 .#
b100000000 -#
b100000000 ,#
b1 +#
b10100 *#
b10100 )#
b1100 B"
b100000000101001100011 :"
b100000000101001100011 v"
b100000000101001100011 &#
0s"
1q"
0t"
1r"
b101 }
b101 n"
b101 H#
b101 O#
b1 |
b1 6#
b1 M#
b0 ."
b0 j"
b0 I#
b0 R"
b0 0#
b1 Q"
b1 /#
b0 9"
b0 G#
b1000 C"
b1000 >#
b1 F"
b0 /"
b0 k"
b0 @#
0Y#
b11111111111111110000000011111111 Q
0R
0L
b0 $
b0 9
b0 p
b0 '"
b0 ]#
1p"
0u"
b0 !"
b0 o"
b0 ?#
b0 F#
b1 ?
b1 =
b0 ~
b0 5#
b0 D#
1K"
b1 O"
b0 !
b0 :
b0 t
b0 ?"
b0 "
b0 <
b0 s
b0 <"
b101 S"
b101 V#
b0 7"
b0 [#
b101 4
b101 @
b101 o
b101 1"
b101 B#
b101 K#
b100 D"
b0 G"
b0 2#
b0 w
b0 <#
b0 E#
b0 N#
b0 U#
b0 E"
b0 S#
1e
1f
11
b10000 y
b10000 W"
b11 \
1#
b10000 x
b10000 U"
b1100 &
b1100 ^
b1100 0"
bx I"
bx 4#
b11111111111111111111111111111100 T"
b11111111111111111111111111111100 C#
b11111111111111111111111111111100 L#
#7820
b0 Y"
b0 2
b0 g
b0 r
#7840
b10100 %"
b10100 .#
b0 -"
b0 V"
b0 l"
b11 $"
b11 |"
b11 '#
0v
b1000 +"
b1000 !#
1{
b0 Z"
b0 `"
b0 a"
b0 ["
b0 ]"
b0 i"
#7900
05
#8000
0f
0e
01
0#
15
#8010
b0 ;#
b0 y"
b0 %"
b0 .#
b0 -#
b0 ,#
b0 +#
b0 *#
b0 )#
b10000 B"
b0 :"
b0 v"
b0 &#
b0 }
b0 n"
b0 H#
b0 O#
1s"
0q"
1t"
0r"
1p"
0u"
b101 !"
b101 o"
b101 ?#
b101 F#
b10100 ."
b10100 j"
b10100 I#
b1100 /"
b1100 k"
b1100 @#
0J"
1@"
b1000 4"
b1000 m"
b1 R"
b1 0#
b0 Q"
b0 /#
b10100 9"
b10100 G#
b1100 C"
b1100 >#
b10100 F"
b101 I
b11111111111111111111111100000000 Q
b101 $
b101 9
b101 p
b101 '"
b101 ]#
b0 ?
b0 =
b1 |
b1 6#
b1 M#
b10 ~
b10 5#
b10 D#
b0 S"
b0 V#
b101 7"
b101 [#
b0 4
b0 @
b0 o
b0 1"
b0 B#
b0 K#
b1000 D"
b1 G"
b1 2#
0Z#
b101 w
b101 <#
b101 E#
b101 N#
b101 U#
b0 ="
1L"
b1 P"
b1 T#
b101 2"
b101 Q#
b100 E"
b100 S#
b0 H"
b0 3#
b0 7#
b0 W#
1e
1f
11
b10100 y
b10100 W"
b0 \
b1 ]
1#
b10100 x
b10100 U"
b10000 &
b10000 ^
b10000 0"
b0 T"
b0 C#
b0 L#
