cpu/build/cpu_wavedata.vcd
$date
	Thu Aug 26 15:01:26 2021
$end
$version
	Icarus Verilog
$end
$timescale
	100ps
$end
$scope module testbenchCPU $end
$var wire 3 ! memWrite [2:0] $end
$var wire 4 " memRead [3:0] $end
$var wire 1 # insReadEn $end
$var wire 32 $ WRITE_DATA [31:0] $end
$var wire 32 % READ_DATA [31:0] $end
$var wire 32 & PC [31:0] $end
$var wire 128 ' MAIN_MEM_WRITE_DATA [127:0] $end
$var wire 1 ( MAIN_MEM_WRITE $end
$var wire 128 ) MAIN_MEM_READ_DATA [127:0] $end
$var wire 1 * MAIN_MEM_READ $end
$var wire 1 + MAIN_MEM_BUSY_WAIT $end
$var wire 28 , MAIN_MEM_ADDRESS [27:0] $end
$var wire 128 - INS_MEM_READ_DATA [127:0] $end
$var wire 1 . INS_MEM_READ $end
$var wire 1 / INS_MEM_BUSY_WAIT $end
$var wire 28 0 INS_MEM_ADDRESS [27:0] $end
$var wire 1 1 INS_CACHE_BUSY_WAIT $end
$var wire 32 2 INS [31:0] $end
$var wire 1 3 BUSY_WAIT $end
$var wire 32 4 ADDRESS [31:0] $end
$var reg 1 5 CLK $end
$var reg 1 6 RESET $end
$scope module myCacheMemory $end
$var wire 1 7 TAG_MATCH $end
$var wire 128 8 block [127:0] $end
$var wire 1 5 clock $end
$var wire 1 6 reset $end
$var wire 32 9 writedata [31:0] $end
$var wire 3 : write [2:0] $end
$var wire 25 ; tag [24:0] $end
$var wire 4 < read [3:0] $end
$var wire 2 = offset [1:0] $end
$var wire 3 > index [2:0] $end
$var wire 2 ? byte_offset [1:0] $end
$var wire 32 @ address [31:0] $end
$var wire 128 A MAIN_MEM_READ_DATA [127:0] $end
$var wire 1 + MAIN_MEM_BUSY_WAIT $end
$var reg 128 B CURRENT_DATA [127:0] $end
$var reg 1 C CURRENT_DIRTY $end
$var reg 25 D CURRENT_TAG [24:0] $end
$var reg 1 E CURRENT_VALID $end
$var reg 28 F MAIN_MEM_ADDRESS [27:0] $end
$var reg 1 * MAIN_MEM_READ $end
$var reg 1 ( MAIN_MEM_WRITE $end
$var reg 128 G MAIN_MEM_WRITE_DATA [127:0] $end
$var reg 1 3 busywait $end
$var reg 32 H cache_readdata [31:0] $end
$var reg 32 I cache_writedata [31:0] $end
$var reg 2 J next_state [1:0] $end
$var reg 1 K readCache $end
$var reg 1 L readaccess $end
$var reg 32 M readdata [31:0] $end
$var reg 2 N state [1:0] $end
$var reg 1 O writeCache $end
$var reg 1 P writeCache_mem $end
$var reg 32 Q write_mask [31:0] $end
$var reg 1 R writeaccess $end
$var integer 32 S i [31:0] $end
$upscope $end
$scope module myDataMem $end
$var wire 28 T address [27:0] $end
$var wire 1 5 clock $end
$var wire 1 * read $end
$var wire 1 6 reset $end
$var wire 1 ( write $end
$var wire 128 U writedata [127:0] $end
$var reg 1 + busywait $end
$var reg 1 V readaccess $end
$var reg 128 W readdata [127:0] $end
$var reg 1 X writeaccess $end
$var integer 32 Y i [31:0] $end
$upscope $end
$scope module myInsCacheMemory $end
$var wire 1 Z TAG_MATCH $end
$var wire 1 5 clock $end
$var wire 1 6 reset $end
$var wire 3 [ tag [2:0] $end
$var wire 1 # read $end
$var wire 2 \ offset [1:0] $end
$var wire 3 ] index [2:0] $end
$var wire 32 ^ address [31:0] $end
$var wire 128 _ MAIN_MEM_READ_DATA [127:0] $end
$var wire 1 / MAIN_MEM_BUSY_WAIT $end
$var reg 32 ` CURRENT_DATA [31:0] $end
$var reg 3 a CURRENT_TAG [2:0] $end
$var reg 1 b CURRENT_VALID $end
$var reg 28 c MAIN_MEM_ADDRESS [27:0] $end
$var reg 1 . MAIN_MEM_READ $end
$var reg 1 1 busywait $end
$var reg 2 d next_state [1:0] $end
$var reg 1 e readCache $end
$var reg 1 f readaccess $end
$var reg 32 g readdata [31:0] $end
$var reg 2 h state [1:0] $end
$var reg 1 i writeCache_mem $end
$var integer 32 j i [31:0] $end
$upscope $end
$scope module myInsMem $end
$var wire 28 k address [27:0] $end
$var wire 1 5 clock $end
$var wire 1 . read $end
$var reg 1 / busywait $end
$var reg 1 l readaccess $end
$var reg 128 m readdata [127:0] $end
$upscope $end
$scope module mycpu $end
$var wire 1 5 CLK $end
$var wire 32 n DATA_CACHE_ADDR [31:0] $end
$var wire 1 3 DATA_CACHE_BUSY_WAIT $end
$var wire 32 o DATA_CACHE_DATA [31:0] $end
$var wire 32 p DATA_CACHE_READ_DATA [31:0] $end
$var wire 32 q INSTRUCTION [31:0] $end
$var wire 1 1 INS_CACHE_BUSY_WAIT $end
$var wire 1 6 RESET $end
$var wire 4 r memReadEn [3:0] $end
$var wire 3 s memWriteEn [2:0] $end
$var wire 2 t REG_WRITE_SELECT_S2 [1:0] $end
$var wire 1 u REG_WRITE_EN_S2 $end
$var wire 32 v REG_WRITE_DATA [31:0] $end
$var wire 32 w PC_PLUS_4 [31:0] $end
$var wire 32 x PC_NEXT [31:0] $end
$var wire 1 y OPERAND2_SEL $end
$var wire 1 z OPERAND1_SEL $end
$var wire 2 { OP2_HAZ_MUX_SEL [1:0] $end
$var wire 32 | OP2_HAZ_MUX_OUT [31:0] $end
$var wire 2 } OP1_HAZ_MUX_SEL [1:0] $end
$var wire 32 ~ OP1_HAZ_MUX_OUT [31:0] $end
$var wire 3 !" MEM_WRITE_S2 [2:0] $end
$var wire 4 "" MEM_READ_S2 [3:0] $end
$var wire 4 #" IMMEDIATE_SELECT [3:0] $end
$var wire 32 $" IMMEDIATE_OUT_S2 [31:0] $end
$var wire 1 %" HAZ_MUX_SEL $end
$var wire 32 &" HAZ_MUX_OUT [31:0] $end
$var wire 32 '" DATA2_S2 [31:0] $end
$var wire 32 (" DATA1_S2 [31:0] $end
$var wire 1 )" BRANCH_SELECT_OUT $end
$var wire 4 *" BRANCH_SELECT [3:0] $end
$var wire 5 +" ALU_SELECT [4:0] $end
$var wire 32 ," ALU_OUT [31:0] $end
$var wire 32 -" ALU_IN_2 [31:0] $end
$var wire 32 ." ALU_IN_1 [31:0] $end
$var reg 32 /" PC [31:0] $end
$var reg 32 0" PR_ALU_OUT_S3 [31:0] $end
$var reg 32 1" PR_ALU_OUT_S4 [31:0] $end
$var reg 5 2" PR_ALU_SELECT [4:0] $end
$var reg 4 3" PR_BRANCH_SELECT_S2 [3:0] $end
$var reg 32 4" PR_DATA_1_S2 [31:0] $end
$var reg 32 5" PR_DATA_2_S2 [31:0] $end
$var reg 32 6" PR_DATA_2_S3 [31:0] $end
$var reg 32 7" PR_DATA_CACHE_OUT [31:0] $end
$var reg 32 8" PR_IMMEDIATE_SELECT_OUT [31:0] $end
$var reg 32 9" PR_INSTRUCTION [31:0] $end
$var reg 4 :" PR_MEM_READ_S2 [3:0] $end
$var reg 4 ;" PR_MEM_READ_S3 [3:0] $end
$var reg 3 <" PR_MEM_WRITE_S2 [2:0] $end
$var reg 3 =" PR_MEM_WRITE_S3 [2:0] $end
$var reg 1 >" PR_OPERAND1_SEL $end
$var reg 1 ?" PR_OPERAND2_SEL $end
$var reg 32 @" PR_PC_S1 [31:0] $end
$var reg 32 A" PR_PC_S2 [31:0] $end
$var reg 32 B" PR_PC_S3 [31:0] $end
$var reg 32 C" PR_PC_S4 [31:0] $end
$var reg 5 D" PR_REGISTER_WRITE_ADDR_S2 [4:0] $end
$var reg 5 E" PR_REGISTER_WRITE_ADDR_S3 [4:0] $end
$var reg 5 F" PR_REGISTER_WRITE_ADDR_S4 [4:0] $end
$var reg 5 G" PR_REGISTER_WRITE_ADDR_S5 [4:0] $end
$var reg 1 H" PR_REG_WRITE_EN_S2 $end
$var reg 1 I" PR_REG_WRITE_EN_S3 $end
$var reg 1 J" PR_REG_WRITE_EN_S4 $end
$var reg 1 K" PR_REG_WRITE_EN_S5 $end
$var reg 2 L" PR_REG_WRITE_SELECT_S2 [1:0] $end
$var reg 2 M" PR_REG_WRITE_SELECT_S3 [1:0] $end
$var reg 2 N" PR_REG_WRITE_SELECT_S4 [1:0] $end
$var reg 5 O" REG_READ_ADDR1 [4:0] $end
$var reg 5 P" REG_READ_ADDR2 [4:0] $end
$var reg 32 Q" REG_WRITE_DATA_S5 [31:0] $end
$var reg 1 # insReadEn $end
$scope module muxjump $end
$var wire 32 R" INPUT1 [31:0] $end
$var wire 1 )" SELECT $end
$var wire 32 S" INPUT2 [31:0] $end
$var reg 32 T" RESULT [31:0] $end
$upscope $end
$scope module myAlu $end
$var wire 32 U" INTER_AND [31:0] $end
$var wire 32 V" INTER_FWD [31:0] $end
$var wire 32 W" INTER_OR [31:0] $end
$var wire 32 X" INTER_XOR [31:0] $end
$var wire 5 Y" SELECT [4:0] $end
$var wire 32 Z" INTER_SUB [31:0] $end
$var wire 32 [" INTER_SRL [31:0] $end
$var wire 32 \" INTER_SRA [31:0] $end
$var wire 32 ]" INTER_SLTU [31:0] $end
$var wire 32 ^" INTER_SLT [31:0] $end
$var wire 32 _" INTER_SLL [31:0] $end
$var wire 32 `" INTER_REMU [31:0] $end
$var wire 32 a" INTER_REM [31:0] $end
$var wire 32 b" INTER_MULHU [31:0] $end
$var wire 32 c" INTER_MULHSU [31:0] $end
$var wire 32 d" INTER_MUL [31:0] $end
$var wire 32 e" INTER_DIV [31:0] $end
$var wire 32 f" INTER_ADD [31:0] $end
$var wire 32 g" DATA2 [31:0] $end
$var wire 32 h" DATA1 [31:0] $end
$var reg 32 i" RESULT [31:0] $end
$upscope $end
$scope module myBranchSelect $end
$var wire 32 j" DATA1 [31:0] $end
$var wire 32 k" DATA2 [31:0] $end
$var wire 4 l" SELECT [3:0] $end
$var wire 1 m" BNE $end
$var wire 1 n" BLTU $end
$var wire 1 o" BLT $end
$var wire 1 p" BGEU $end
$var wire 1 q" BGE $end
$var wire 1 r" BEQ $end
$var reg 1 )" MUX_OUT $end
$upscope $end
$scope module myControl $end
$var wire 32 s" INSTRUCTION [31:0] $end
$var wire 1 6 RESET $end
$var wire 1 t" funct3_mux_select $end
$var wire 1 z oparand_1_select $end
$var wire 1 y oparand_2_select $end
$var wire 1 u reg_file_write $end
$var wire 2 u" reg_write_select [1:0] $end
$var wire 7 v" opcode [6:0] $end
$var wire 3 w" main_mem_write [2:0] $end
$var wire 4 x" main_mem_read [3:0] $end
$var wire 4 y" immediate_select [3:0] $end
$var wire 7 z" funct7 [6:0] $end
$var wire 3 {" funct3 [2:0] $end
$var wire 4 |" branch_control [3:0] $end
$var wire 5 }" alu_signal [4:0] $end
$scope module funct3_mux $end
$var wire 3 ~" INPUT1 [2:0] $end
$var wire 3 !# INPUT2 [2:0] $end
$var wire 1 t" SELECT $end
$var reg 3 "# RESULT [2:0] $end
$upscope $end
$upscope $end
$scope module myImmediate $end
$var wire 32 ## INST [31:0] $end
$var wire 4 $# SELECT [3:0] $end
$var wire 5 %# TYPE6 [4:0] $end
$var wire 12 &# TYPE5 [11:0] $end
$var wire 12 '# TYPE4 [11:0] $end
$var wire 12 (# TYPE3 [11:0] $end
$var wire 20 )# TYPE2 [19:0] $end
$var wire 20 *# TYPE1 [19:0] $end
$var reg 32 +# OUT [31:0] $end
$upscope $end
$scope module myStage3Fowarding $end
$var wire 5 ,# ADDR1 [4:0] $end
$var wire 5 -# ADDR2 [4:0] $end
$var wire 1 .# MEM_WRITE $end
$var wire 1 >" OP1_MUX $end
$var wire 1 ?" OP2_MUX $end
$var wire 5 /# STAGE_3_ADDR [4:0] $end
$var wire 1 I" STAGE_3_REGWRITE_EN $end
$var wire 5 0# STAGE_4_ADDR [4:0] $end
$var wire 1 J" STAGE_4_REGWRITE_EN $end
$var wire 5 1# STAGE_5_EXTRA_ADDR [4:0] $end
$var wire 1 K" STAGE_5_EXTRA_REGWRITE_EN $end
$var reg 2 2# OP1_MUX_OUT [1:0] $end
$var reg 2 3# OP2_MUX_OUT [1:0] $end
$upscope $end
$scope module myreg $end
$var wire 1 5 CLK $end
$var wire 5 4# INADDRESS [4:0] $end
$var wire 32 5# OUT1 [31:0] $end
$var wire 5 6# OUT1ADDRESS [4:0] $end
$var wire 32 7# OUT2 [31:0] $end
$var wire 5 8# OUT2ADDRESS [4:0] $end
$var wire 1 6 RESET $end
$var wire 1 J" WRITE $end
$var wire 32 9# IN [31:0] $end
$var integer 32 :# i [31:0] $end
$upscope $end
$scope module oparand1_mux $end
$var wire 32 ;# INPUT2 [31:0] $end
$var wire 1 >" SELECT $end
$var wire 32 <# INPUT1 [31:0] $end
$var reg 32 =# RESULT [31:0] $end
$upscope $end
$scope module oparand1_mux_haz $end
$var wire 32 ># INPUT1 [31:0] $end
$var wire 32 ?# INPUT2 [31:0] $end
$var wire 32 @# INPUT4 [31:0] $end
$var wire 2 A# SELECT [1:0] $end
$var wire 32 B# INPUT3 [31:0] $end
$var reg 32 C# RESULT [31:0] $end
$upscope $end
$scope module oparand2_mux $end
$var wire 32 D# INPUT2 [31:0] $end
$var wire 1 ?" SELECT $end
$var wire 32 E# INPUT1 [31:0] $end
$var reg 32 F# RESULT [31:0] $end
$upscope $end
$scope module oparand2_mux_haz $end
$var wire 32 G# INPUT1 [31:0] $end
$var wire 32 H# INPUT2 [31:0] $end
$var wire 32 I# INPUT4 [31:0] $end
$var wire 2 J# SELECT [1:0] $end
$var wire 32 K# INPUT3 [31:0] $end
$var reg 32 L# RESULT [31:0] $end
$upscope $end
$scope module regWriteSelMUX $end
$var wire 32 M# INPUT1 [31:0] $end
$var wire 32 N# INPUT2 [31:0] $end
$var wire 32 O# INPUT3 [31:0] $end
$var wire 32 P# INPUT4 [31:0] $end
$var wire 2 Q# SELECT [1:0] $end
$var reg 32 R# RESULT [31:0] $end
$upscope $end
$scope module stage4_forward_unit $end
$var wire 5 S# STAGE3_REG_ADDR [4:0] $end
$var wire 5 T# STAGE4_REG_ADDR [4:0] $end
$var wire 32 U# STAGE_3_DATA [31:0] $end
$var wire 1 V# STAGE_3_MEM_WRITE $end
$var wire 1 W# STAGE_4_MEM_READ $end
$var reg 1 %" MUX_OUT $end
$upscope $end
$scope module stage4_forward_unit_mux $end
$var wire 32 X# INPUT1 [31:0] $end
$var wire 32 Y# INPUT2 [31:0] $end
$var wire 1 %" SELECT $end
$var reg 32 Z# RESULT [31:0] $end
$upscope $end
$upscope $end
$upscope $end
$enddefinitions $end
#0
$dumpvars
b0 Z#
b0 Y#
b0 X#
0W#
0V#
bz U#
b0 T#
b0 S#
b0 R#
b0 Q#
b0 P#
b0 O#
b0 N#
b0 M#
b0 L#
b0 K#
b0 J#
bx I#
b0 H#
b0 G#
b0 F#
b0 E#
b0 D#
b0 C#
b0 B#
b0 A#
bx @#
b0 ?#
b0 >#
b0 =#
b0 <#
b0 ;#
bx :#
b0 9#
b0 8#
bx 7#
b0 6#
bx 5#
b0 4#
b0 3#
b0 2#
bx 1#
b0 0#
b0 /#
0.#
bx -#
bx ,#
bx +#
b0 *#
b0 )#
b0 (#
b0 '#
b0 &#
b0 %#
bx $#
b0 ##
b0 "#
b0 !#
b0 ~"
bx000 }"
bx |"
b0 {"
b0 z"
bx y"
bx x"
bx w"
b0 v"
bx u"
xt"
b0 s"
1r"
1q"
1p"
0o"
0n"
0m"
b0 l"
b0 k"
b0 j"
bx i"
b0 h"
b0 g"
bx f"
bx e"
bx d"
bx c"
bx b"
bx a"
bx `"
bx _"
bx ^"
bx ]"
bx \"
bx ["
bx Z"
b0 Y"
bx X"
bx W"
bx V"
bx U"
b0 T"
bx S"
b0 R"
bx Q"
bx P"
bx O"
b0 N"
b0 M"
b0 L"
xK"
0J"
0I"
0H"
bx G"
b0 F"
b0 E"
b0 D"
b0 C"
b0 B"
b0 A"
b0 @"
0?"
0>"
b0 ="
b0 <"
b0 ;"
b0 :"
b0 9"
b0 8"
b0 7"
b0 6"
b0 5"
b0 4"
b0 3"
b0 2"
b0 1"
b0 0"
b11111111111111111111111111111100 /"
b0 ."
b0 -"
bx ,"
bx000 +"
bx *"
x)"
bx ("
bx '"
b0 &"
0%"
bx $"
bx #"
bx ""
bx !"
b0 ~
b0 }
b0 |
b0 {
xz
xy
b0 x
b0 w
b0 v
xu
bx t
b0 s
b0 r
bx q
bx p
b0 o
b0 n
bx m
0l
bx k
b1000 j
xi
b0 h
bx g
xf
xe
b0 d
bx c
xb
bx a
bx `
bx _
b11111111111111111111111111111100 ^
b111 ]
b11 \
b111 [
xZ
b100000000 Y
0X
bx W
0V
bx U
bx T
b1000 S
0R
b11111111111111111111111100000000 Q
xP
xO
b0 N
bx M
0L
xK
b0 J
b0 I
bx H
bx G
bx F
xE
bx D
xC
bx B
bx A
b0 @
b0 ?
b0 >
b0 =
b0 <
b0 ;
b0 :
b0 9
b0 8
x7
16
15
b0 4
03
bx 2
01
bx 0
0/
x.
bx -
bx ,
0+
x*
bx )
x(
bx '
b11111111111111111111111111111100 &
bx %
b0 $
0#
b0 "
b0 !
$end
#10
bx 6#
bx 8#
bx v"
bx {"
bx ~"
bx z"
bx *#
bx )#
bx (#
bx '#
bx &#
bx %#
bx 9"
bx s"
bx ##
x.#
bx ."
bx h"
bx =#
b0 ,"
b0 S"
b0 i"
bx -"
bx g"
bx F#
bx |
bx E#
bx L#
bx ~
bx <#
bx C#
xH"
bx L"
bx <"
bx :"
x?"
x>"
bx000 2"
bx000 Y"
bx 3"
bx l"
b0 P"
b0 -#
b0 O"
b0 ,#
bx 8"
bx D#
bx 5"
bx k"
bx G#
xr"
xm"
xo"
xq"
xn"
xp"
bx 4"
bx j"
bx >#
bx ?
bx =
bx >
bx ;
bx 4
bx @
bx n
bx 0"
bx ?#
bx H#
bx v
bx 9#
bx B#
bx K#
bx R#
bx 7"
bx M#
bx Y#
b0 V"
b0 B
0C
0E
b0 `
0b
0K"
b0 G"
b0 1#
b0 Q"
b0 @#
b0 I#
#20
bx V"
bx B
xC
xE
0)"
b100000 :#
#40
b0x ]"
b0x ^"
#100
05
#200
b0 v
b0 9#
b0 B#
b0 K#
b0 R#
b0 ?
b0 =
b0 >
b0 ;
0.#
b0 ."
b0 h"
b0 =#
bx ,"
bx S"
bx i"
b0 -"
b0 g"
b0 F#
b0 |
b0 E#
b0 L#
b0 ~
b0 <#
b0 C#
b0 6#
b0 8#
b0 v"
b0 {"
b0 ~"
b0 z"
b0 *#
b0 )#
b0 (#
b0 '#
b0 &#
b0 %#
b0 7"
b0 M#
b0 Y#
b0 4
b0 @
b0 n
b0 0"
b0 ?#
b0 H#
0H"
b0 L"
b0 <"
0?"
0>"
b0 2"
b0 Y"
b0 :"
b0 3"
b0 l"
b0 8"
b0 D#
1r"
0m"
0o"
1q"
0n"
1p"
b0 5"
b0 k"
b0 G#
b0 4"
b0 j"
b0 >#
b0 9"
b0 s"
b0 ##
15
#210
bx 6#
bx 8#
bx v"
bx {"
bx ~"
bx z"
bx *#
bx )#
bx (#
bx '#
bx &#
bx %#
bx 9"
bx s"
bx ##
x.#
bx ."
bx h"
bx =#
b0 ,"
b0 S"
b0 i"
bx -"
bx g"
bx F#
bx |
bx E#
bx L#
bx ~
bx <#
bx C#
xH"
bx L"
bx <"
bx :"
x?"
x>"
bx000 2"
bx000 Y"
bx 3"
bx l"
bx 8"
bx D#
bx 5"
bx k"
bx G#
xr"
xm"
xo"
xq"
xn"
xp"
bx 4"
bx j"
bx >#
bx ?
bx =
bx >
bx ;
bx 4
bx @
bx n
bx 0"
bx ?#
bx H#
bx v
bx 9#
bx B#
bx K#
bx R#
bx 7"
bx M#
bx Y#
b0 B
0C
0E
b0 V"
#220
bx V"
bx B
xC
xE
#250
06
#300
05
#400
15
#410
b100 @"
bx P"
bx -#
bx O"
bx ,#
bx D"
xV#
xW#
xR
xL
bx $
bx 9
bx o
bx &"
bx Z#
b0 ?
b0 =
b0 >
b0 ;
xI"
bx M"
bx !
bx :
bx s
bx ="
bx "
bx <
bx r
bx ;"
bx 6"
bx X#
b0 4
b0 @
b0 n
b0 0"
b0 ?#
b0 H#
bx 1"
bx N#
b1 d
0e
0.
1f
11
b100 x
b100 T"
b0 \
b0 ]
b0 [
1#
b100 w
b100 R"
b0 &
b0 ^
b0 /"
bx Q"
bx @#
bx I#
#420
b0 B
0C
0E
b0 2
b0 g
b0 q
#500
05
#600
1l
1/
0i
b0 0
b0 c
b0 k
1.
b1 d
b1 h
0#
15
#700
05
#800
15
#900
05
#1000
15
#1100
05
#1200
15
bx00010011 -
bx00010011 _
bx00010011 m
#1300
05
#1400
15
#1500
05
#1600
15
bx0000000100010011 -
bx0000000100010011 _
bx0000000100010011 m
#1700
05
#1800
15
#1900
05
#2000
15
bx100000010000000100010011 -
bx100000010000000100010011 _
bx100000010000000100010011 m
#2100
05
#2200
15
#2300
05
#2400
15
bx00000000100000010000000100010011 -
bx00000000100000010000000100010011 _
bx00000000100000010000000100010011 m
#2500
05
#2600
15
#2700
05
#2800
15
bx0010001100000000100000010000000100010011 -
bx0010001100000000100000010000000100010011 _
bx0010001100000000100000010000000100010011 m
#2900
05
#3000
15
#3100
05
#3200
15
bx001001100010001100000000100000010000000100010011 -
bx001001100010001100000000100000010000000100010011 _
bx001001100010001100000000100000010000000100010011 m
#3300
05
#3400
15
#3500
05
#3600
15
bx00100000001001100010001100000000100000010000000100010011 -
bx00100000001001100010001100000000100000010000000100010011 _
bx00100000001001100010001100000000100000010000000100010011 m
#3700
05
#3800
15
#3900
05
#4000
15
bx0000000000100000001001100010001100000000100000010000000100010011 -
bx0000000000100000001001100010001100000000100000010000000100010011 _
bx0000000000100000001001100010001100000000100000010000000100010011 m
#4100
05
#4200
15
#4300
05
#4400
15
bx000000000000000000100000001001100010001100000000100000010000000100010011 -
bx000000000000000000100000001001100010001100000000100000010000000100010011 _
bx000000000000000000100000001001100010001100000000100000010000000100010011 m
#4500
05
#4600
15
#4700
05
#4800
15
bx00000000000000000000000000100000001001100010001100000000100000010000000100010011 -
bx00000000000000000000000000100000001001100010001100000000100000010000000100010011 _
bx00000000000000000000000000100000001001100010001100000000100000010000000100010011 m
#4900
05
#5000
15
#5100
05
#5200
15
bx0000000000000000000000000000000000100000001001100010001100000000100000010000000100010011 -
bx0000000000000000000000000000000000100000001001100010001100000000100000010000000100010011 _
bx0000000000000000000000000000000000100000001001100010001100000000100000010000000100010011 m
#5300
05
#5400
15
#5500
05
#5600
15
bx000000000000000000000000000000000000000000100000001001100010001100000000100000010000000100010011 -
bx000000000000000000000000000000000000000000100000001001100010001100000000100000010000000100010011 _
bx000000000000000000000000000000000000000000100000001001100010001100000000100000010000000100010011 m
#5700
05
#5800
15
#5900
05
#6000
15
bx00000000000000000000000000000000000000000000000000100000001001100010001100000000100000010000000100010011 -
bx00000000000000000000000000000000000000000000000000100000001001100010001100000000100000010000000100010011 _
bx00000000000000000000000000000000000000000000000000100000001001100010001100000000100000010000000100010011 m
#6100
05
#6200
15
#6300
05
#6400
15
bx0000000000000000000000000000000000000000000000000000000000100000001001100010001100000000100000010000000100010011 -
bx0000000000000000000000000000000000000000000000000000000000100000001001100010001100000000100000010000000100010011 _
bx0000000000000000000000000000000000000000000000000000000000100000001001100010001100000000100000010000000100010011 m
#6500
05
#6600
15
#6700
05
#6800
15
bx000000000000000000000000000000000000000000000000000000000000000000100000001001100010001100000000100000010000000100010011 -
bx000000000000000000000000000000000000000000000000000000000000000000100000001001100010001100000000100000010000000100010011 _
bx000000000000000000000000000000000000000000000000000000000000000000100000001001100010001100000000100000010000000100010011 m
#6900
05
#7000
15
#7100
05
#7200
0.
b0 h
1i
b1 d
15
0l
0/
b100000001001100010001100000000100000010000000100010011 -
b100000001001100010001100000000100000010000000100010011 _
b100000001001100010001100000000100000010000000100010011 m
#7220
b100000010000000100010011 2
b100000010000000100010011 g
b100000010000000100010011 q
b0 a
b100000010000000100010011 `
1b
#7229
1e
b0 d
1Z
#7300
05
#7400
0f
0e
01
15
#7410
b10 6#
b1000 8#
b10011 v"
b0 {"
b0 ~"
b0 z"
b100000010000 *#
b100000010000 )#
b1000 (#
b10 '#
b10 &#
b0 %#
b1000 @"
b100000010000000100010011 9"
b100000010000000100010011 s"
b100000010000000100010011 ##
b100 A"
b100 ;#
bx E"
bx /#
bx S#
b0 v
b0 9#
b0 B#
b0 K#
b0 R#
xJ"
bx N"
bx Q#
b0 1"
b0 N#
1e
1f
11
b1000 x
b1000 T"
b1 \
1#
b1000 w
b1000 R"
b100 &
b100 ^
b100 /"
#7420
b1000000010011000100011 2
b1000000010011000100011 g
b1000000010011000100011 q
#7430
b0 ("
b0 5#
b0 '"
b0 7#
#7440
b1000 $"
b1000 +#
1y
b10 #"
b10 y"
b10 $#
0t"
1u
0z
b1 t
b1 u"
b0 *"
b0 |"
b0 +"
b0 }"
b0 !"
b0 w"
b0 ""
b0 x"
#7500
05
#7600
0f
0e
01
0#
15
#7610
b10 +"
b10 }"
b10 "#
b0 6#
b10 8#
b100011 v"
b10 {"
b10 ~"
b10 $"
b10 +#
b1000000010 *#
b1000000010 )#
b10 (#
b1100 '#
b1100 &#
b1100 @"
b1000000010011000100011 9"
b1000000010011000100011 s"
b1000000010011000100011 ##
b0 ."
b0 h"
b0 =#
0.#
bx ,"
bx S"
bx i"
b1000 -"
b1000 g"
b1000 F#
b0 |
b0 E#
b0 L#
b0 ~
b0 <#
b0 C#
1H"
b1 L"
b0 <"
b0 :"
1?"
0>"
b0 2"
b0 Y"
b0 3"
b0 l"
b1000 P"
b1000 -#
b10 O"
b10 ,#
b1000 8"
b1000 D#
1r"
0m"
0o"
1q"
0n"
1p"
b0 5"
b0 k"
b0 G#
b0 4"
b0 j"
b0 >#
b1000 A"
b1000 ;#
b10 D"
b100 B"
bx F"
bx 0#
bx 4#
bx T#
1e
1f
11
b1100 x
b1100 T"
b10 \
1#
b1100 w
b1100 R"
b1000 &
b1000 ^
b1000 /"
xK"
b0 Q"
b0 @#
b0 I#
#7620
b1000 V"
b0 2
b0 g
b0 q
#7640
b1100 $"
b1100 +#
b0 +"
b0 }"
b0 "#
b1000 ,"
b1000 S"
b1000 i"
0u
b100 #"
b100 y"
b100 $#
1t"
b10 *"
b10 |"
b110 !"
b110 w"
b10 ""
b10 x"
b1 ]"
b1 ^"
b1000 X"
b1000 W"
b0 U"
b11111111111111111111111111111000 Z"
b1000 f"
#7650
b0 \"
b0 ["
b0 _"
#7690
b0 b"
b0 c"
b0 d"
#7700
05
#7800
0f
0e
01
0#
15
#7810
b0 8#
b0 v"
b0 {"
b0 ~"
b0 $"
b0 +#
b0 *#
b0 )#
b0 (#
b0 '#
b0 &#
b10000 @"
b0 9"
b0 s"
b0 ##
b1000 |
b1000 E#
b1000 L#
1.#
b1 {
b1 3#
b1 J#
b1100 -"
b1100 g"
b1100 F#
0H"
b110 <"
b10 :"
b10 3"
b10 l"
b10 P"
b10 -#
b0 O"
b0 ,#
b1100 8"
b1100 D#
b1100 A"
b1100 ;#
b1100 D"
b0 ."
b0 h"
b0 =#
0V#
0W#
0R
0L
b0 $
b0 9
b0 o
b0 &"
b0 Z#
b0 ~
b0 <#
b0 C#
b10 =
b0 }
b0 2#
b0 A#
1I"
b1 M"
b0 !
b0 :
b0 s
b0 ="
b0 "
b0 <
b0 r
b0 ;"
b0 6"
b0 X#
b1000 4
b1000 @
b1000 n
b1000 0"
b1000 ?#
b1000 H#
b1000 B"
b10 E"
b10 /#
b10 S#
b100 v
b100 9#
b100 B#
b100 K#
b100 R#
b100 C"
b100 P#
1e
1f
11
b10000 x
b10000 T"
b11 \
1#
b10000 w
b10000 R"
b1100 &
b1100 ^
b1100 /"
bx G"
bx 1#
#7820
b1100 V"
#7840
b1100 ,"
b1100 S"
b1100 i"
0y
b0xxx #"
b0xxx y"
b0xxx $#
0t"
b0 *"
b0 |"
b0 !"
b0 w"
b0 ""
b0 x"
b1100 W"
b1100 X"
b11111111111111111111111111110100 Z"
b1100 f"
#7900
05
#8000
0f
0e
01
0#
15
#8010
b10100 @"
b0 |
b0 E#
b0 L#
0.#
b0 -"
b0 g"
b0 F#
b0 <"
b0 :"
0?"
b0 3"
b0 l"
b0 P"
b0 -#
b0 8"
b0 D#
b10000 A"
b10000 ;#
b0 D"
0O
0K
0(
0*
b1 J
1V#
b1000 I
b0 Q
1R
13
b1000 $
b1000 9
b1000 o
b1000 &"
b1000 Z#
b11 =
b0 {
b0 3#
b0 J#
0I"
b110 !
b110 :
b110 s
b110 ="
b10 "
b10 <
b10 r
b10 ;"
b1000 6"
b1000 X#
b1100 4
b1100 @
b1100 n
b1100 0"
b1100 ?#
b1100 H#
b1100 B"
b1100 E"
b1100 /#
b1100 S#
b1000 v
b1000 9#
b1000 B#
b1000 K#
b1000 R#
1J"
b1 N"
b1 Q#
b1000 1"
b1000 N#
b1000 C"
b1000 P#
b10 F"
b10 0#
b10 4#
b10 T#
1e
1f
11
b10100 x
b10100 T"
b0 \
b1 ]
1#
b10100 w
b10100 R"
b10000 &
b10000 ^
b10000 /"
b100 Q"
b100 @#
b100 I#
#8020
0e
b1 d
b0 V"
bx a
b0 `
0b
#8029
xZ
#8040
b0 ,"
b0 S"
b0 i"
b0 ]"
b0 ^"
b0 X"
b0 W"
b0 Z"
b0 f"
#8100
05
#8200
0i
1l
1/
1V
1+
b1 0
b1 c
b1 k
1.
b1 d
0P
b0 ,
b0 F
b0 T
1*
b1 J
b1 h
b1 N
0#
15
#8220
b100000010000000100010011 2
b100000010000000100010011 g
b100000010000000100010011 q
b0 a
b100000010000000100010011 `
1b
#8229
1Z
#8300
05
#8400
15
#8440
bx00000000 )
bx00000000 A
bx00000000 W
#8480
bx0000000000000000 )
bx0000000000000000 A
bx0000000000000000 W
#8500
05
#8520
bx000000000000000000000000 )
bx000000000000000000000000 A
bx000000000000000000000000 W
#8560
bx00000000000000000000000000000000 )
bx00000000000000000000000000000000 A
bx00000000000000000000000000000000 W
