cpu/verilog/cpu_wavedata.vcd
$date
	Thu Aug 12 17:37:01 2021
$end
$version
	Icarus Verilog
$end
$timescale
	100ps
$end
$scope module testbenchCPU $end
$var wire 3 ! memWrite [2:0] $end
$var wire 4 " memRead [3:0] $end
$var wire 1 # insReadEn $end
$var wire 32 $ WRITE_DATA [31:0] $end
$var wire 32 % READ_DATA [31:0] $end
$var wire 32 & PC [31:0] $end
$var wire 128 ' MAIN_MEM_WRITE_DATA [127:0] $end
$var wire 1 ( MAIN_MEM_WRITE $end
$var wire 128 ) MAIN_MEM_READ_DATA [127:0] $end
$var wire 1 * MAIN_MEM_READ $end
$var wire 1 + MAIN_MEM_BUSY_WAIT $end
$var wire 28 , MAIN_MEM_ADDRESS [27:0] $end
$var wire 128 - INS_MEM_READ_DATA [127:0] $end
$var wire 1 . INS_MEM_READ $end
$var wire 1 / INS_MEM_BUSY_WAIT $end
$var wire 28 0 INS_MEM_ADDRESS [27:0] $end
$var wire 1 1 INS_CACHE_BUSY_WAIT $end
$var wire 32 2 INS [31:0] $end
$var wire 1 3 BUSY_WAIT $end
$var wire 32 4 ADDRESS [31:0] $end
$var reg 1 5 CLK $end
$var reg 1 6 RESET $end
$scope module myCacheMemory $end
$var wire 1 7 TAG_MATCH $end
$var wire 128 8 block [127:0] $end
$var wire 1 5 clock $end
$var wire 1 6 reset $end
$var wire 32 9 writedata [31:0] $end
$var wire 3 : write [2:0] $end
$var wire 25 ; tag [24:0] $end
$var wire 4 < read [3:0] $end
$var wire 2 = offset [1:0] $end
$var wire 3 > index [2:0] $end
$var wire 2 ? byte_offset [1:0] $end
$var wire 32 @ address [31:0] $end
$var wire 128 A MAIN_MEM_READ_DATA [127:0] $end
$var wire 1 + MAIN_MEM_BUSY_WAIT $end
$var reg 128 B CURRENT_DATA [127:0] $end
$var reg 1 C CURRENT_DIRTY $end
$var reg 25 D CURRENT_TAG [24:0] $end
$var reg 1 E CURRENT_VALID $end
$var reg 28 F MAIN_MEM_ADDRESS [27:0] $end
$var reg 1 * MAIN_MEM_READ $end
$var reg 1 ( MAIN_MEM_WRITE $end
$var reg 128 G MAIN_MEM_WRITE_DATA [127:0] $end
$var reg 1 3 busywait $end
$var reg 32 H cache_readdata [31:0] $end
$var reg 32 I cache_writedata [31:0] $end
$var reg 2 J next_state [1:0] $end
$var reg 1 K readCache $end
$var reg 1 L readaccess $end
$var reg 32 M readdata [31:0] $end
$var reg 2 N state [1:0] $end
$var reg 1 O writeCache $end
$var reg 1 P writeCache_mem $end
$var reg 32 Q write_mask [31:0] $end
$var reg 1 R writeaccess $end
$var integer 32 S i [31:0] $end
$upscope $end
$scope module myDataMem $end
$var wire 28 T address [27:0] $end
$var wire 1 5 clock $end
$var wire 1 * read $end
$var wire 1 6 reset $end
$var wire 1 ( write $end
$var wire 128 U writedata [127:0] $end
$var reg 1 + busywait $end
$var reg 1 V readaccess $end
$var reg 128 W readdata [127:0] $end
$var reg 1 X writeaccess $end
$var integer 32 Y i [31:0] $end
$upscope $end
$scope module myInsCacheMemory $end
$var wire 1 Z TAG_MATCH $end
$var wire 1 5 clock $end
$var wire 1 6 reset $end
$var wire 3 [ tag [2:0] $end
$var wire 1 # read $end
$var wire 2 \ offset [1:0] $end
$var wire 3 ] index [2:0] $end
$var wire 32 ^ address [31:0] $end
$var wire 128 _ MAIN_MEM_READ_DATA [127:0] $end
$var wire 1 / MAIN_MEM_BUSY_WAIT $end
$var reg 32 ` CURRENT_DATA [31:0] $end
$var reg 3 a CURRENT_TAG [2:0] $end
$var reg 1 b CURRENT_VALID $end
$var reg 28 c MAIN_MEM_ADDRESS [27:0] $end
$var reg 1 . MAIN_MEM_READ $end
$var reg 1 1 busywait $end
$var reg 2 d next_state [1:0] $end
$var reg 1 e readCache $end
$var reg 1 f readaccess $end
$var reg 32 g readdata [31:0] $end
$var reg 2 h state [1:0] $end
$var reg 1 i writeCache_mem $end
$var integer 32 j i [31:0] $end
$upscope $end
$scope module myInsMem $end
$var wire 28 k address [27:0] $end
$var wire 1 5 clock $end
$var wire 1 . read $end
$var reg 1 / busywait $end
$var reg 1 l readaccess $end
$var reg 128 m readdata [127:0] $end
$upscope $end
$scope module mycpu $end
$var wire 1 5 CLK $end
$var wire 1 3 DATA_CACHE_BUSY_WAIT $end
$var wire 32 n DATA_CACHE_DATA [31:0] $end
$var wire 32 o DATA_CACHE_READ_DATA [31:0] $end
$var wire 32 p INSTRUCTION [31:0] $end
$var wire 1 1 INS_CACHE_BUSY_WAIT $end
$var wire 1 6 RESET $end
$var wire 4 q memReadEn [3:0] $end
$var wire 3 r memWriteEn [2:0] $end
$var wire 2 s REG_WRITE_SELECT_S2 [1:0] $end
$var wire 1 t REG_WRITE_EN_S2 $end
$var wire 32 u REG_WRITE_DATA [31:0] $end
$var wire 32 v PC_PLUS_4_2 [31:0] $end
$var wire 32 w PC_PLUS_4 [31:0] $end
$var wire 32 x PC_NEXT [31:0] $end
$var wire 1 y OPERAND2_SEL $end
$var wire 1 z OPERAND1_SEL $end
$var wire 3 { MEM_WRITE_S2 [2:0] $end
$var wire 4 | MEM_READ_S2 [3:0] $end
$var wire 4 } IMMEDIATE_SELECT [3:0] $end
$var wire 32 ~ IMMEDIATE_OUT_S2 [31:0] $end
$var wire 32 !" DATA_CACHE_ADDR [31:0] $end
$var wire 32 "" DATA2_S2 [31:0] $end
$var wire 32 #" DATA1_S2 [31:0] $end
$var wire 1 $" BRANCH_SELECT_OUT $end
$var wire 4 %" BRANCH_SELECT [3:0] $end
$var wire 5 &" ALU_SELECT [4:0] $end
$var wire 32 '" ALU_OUT [31:0] $end
$var wire 32 (" ALU_IN_2 [31:0] $end
$var wire 32 )" ALU_IN_1 [31:0] $end
$var reg 32 *" PC [31:0] $end
$var reg 32 +" PR_ALU_OUT_S3 [31:0] $end
$var reg 32 ," PR_ALU_OUT_S4 [31:0] $end
$var reg 5 -" PR_ALU_SELECT [4:0] $end
$var reg 4 ." PR_BRANCH_SELECT_S2 [3:0] $end
$var reg 32 /" PR_DATA_1_S2 [31:0] $end
$var reg 32 0" PR_DATA_2_S2 [31:0] $end
$var reg 32 1" PR_DATA_2_S3 [31:0] $end
$var reg 32 2" PR_DATA_CACHE_OUT [31:0] $end
$var reg 32 3" PR_IMMEDIATE_SELECT_OUT [31:0] $end
$var reg 32 4" PR_INSTRUCTION [31:0] $end
$var reg 4 5" PR_MEM_READ_S2 [3:0] $end
$var reg 4 6" PR_MEM_READ_S3 [3:0] $end
$var reg 3 7" PR_MEM_WRITE_S2 [2:0] $end
$var reg 3 8" PR_MEM_WRITE_S3 [2:0] $end
$var reg 1 9" PR_OPERAND1_SEL $end
$var reg 1 :" PR_OPERAND2_SEL $end
$var reg 32 ;" PR_PC_S1 [31:0] $end
$var reg 32 <" PR_PC_S2 [31:0] $end
$var reg 32 =" PR_PC_S3 [31:0] $end
$var reg 32 >" PR_PC_S4 [31:0] $end
$var reg 5 ?" PR_REGISTER_WRITE_ADDR_S2 [4:0] $end
$var reg 5 @" PR_REGISTER_WRITE_ADDR_S3 [4:0] $end
$var reg 5 A" PR_REGISTER_WRITE_ADDR_S4 [4:0] $end
$var reg 1 B" PR_REG_WRITE_EN_S2 $end
$var reg 1 C" PR_REG_WRITE_EN_S3 $end
$var reg 1 D" PR_REG_WRITE_EN_S4 $end
$var reg 2 E" PR_REG_WRITE_SELECT_S2 [1:0] $end
$var reg 2 F" PR_REG_WRITE_SELECT_S3 [1:0] $end
$var reg 2 G" PR_REG_WRITE_SELECT_S4 [1:0] $end
$var reg 1 # insReadEn $end
$scope module muxjump $end
$var wire 32 H" INPUT1 [31:0] $end
$var wire 1 $" SELECT $end
$var wire 32 I" INPUT2 [31:0] $end
$var reg 32 J" RESULT [31:0] $end
$upscope $end
$scope module myAlu $end
$var wire 32 K" INTER_AND [31:0] $end
$var wire 32 L" INTER_FWD [31:0] $end
$var wire 32 M" INTER_OR [31:0] $end
$var wire 32 N" INTER_XOR [31:0] $end
$var wire 5 O" SELECT [4:0] $end
$var wire 32 P" INTER_SUB [31:0] $end
$var wire 32 Q" INTER_SRL [31:0] $end
$var wire 32 R" INTER_SRA [31:0] $end
$var wire 32 S" INTER_SLTU [31:0] $end
$var wire 32 T" INTER_SLT [31:0] $end
$var wire 32 U" INTER_SLL [31:0] $end
$var wire 32 V" INTER_REMU [31:0] $end
$var wire 32 W" INTER_REM [31:0] $end
$var wire 32 X" INTER_MULHU [31:0] $end
$var wire 32 Y" INTER_MULHSU [31:0] $end
$var wire 32 Z" INTER_MUL [31:0] $end
$var wire 32 [" INTER_DIV [31:0] $end
$var wire 32 \" INTER_ADD [31:0] $end
$var wire 32 ]" DATA2 [31:0] $end
$var wire 32 ^" DATA1 [31:0] $end
$var reg 32 _" RESULT [31:0] $end
$upscope $end
$scope module myBranchSelect $end
$var wire 32 `" DATA1 [31:0] $end
$var wire 32 a" DATA2 [31:0] $end
$var wire 4 b" SELECT [3:0] $end
$var wire 1 c" BNE $end
$var wire 1 d" BLTU $end
$var wire 1 e" BLT $end
$var wire 1 f" BGEU $end
$var wire 1 g" BGE $end
$var wire 1 h" BEQ $end
$var reg 1 $" MUX_OUT $end
$upscope $end
$scope module myControl $end
$var wire 32 i" INSTRUCTION [31:0] $end
$var wire 1 6 RESET $end
$var wire 1 j" funct3_mux_select $end
$var wire 1 z oparand_1_select $end
$var wire 1 y oparand_2_select $end
$var wire 1 t reg_file_write $end
$var wire 2 k" reg_write_select [1:0] $end
$var wire 7 l" opcode [6:0] $end
$var wire 3 m" main_mem_write [2:0] $end
$var wire 4 n" main_mem_read [3:0] $end
$var wire 4 o" immediate_select [3:0] $end
$var wire 7 p" funct7 [6:0] $end
$var wire 3 q" funct3 [2:0] $end
$var wire 4 r" branch_control [3:0] $end
$var wire 5 s" alu_signal [4:0] $end
$scope module funct3_mux $end
$var wire 3 t" INPUT1 [2:0] $end
$var wire 3 u" INPUT2 [2:0] $end
$var wire 1 j" SELECT $end
$var reg 3 v" RESULT [2:0] $end
$upscope $end
$upscope $end
$scope module myImmediate $end
$var wire 32 w" INST [31:0] $end
$var wire 4 x" SELECT [3:0] $end
$var wire 5 y" TYPE6 [4:0] $end
$var wire 12 z" TYPE5 [11:0] $end
$var wire 12 {" TYPE4 [11:0] $end
$var wire 12 |" TYPE3 [11:0] $end
$var wire 20 }" TYPE2 [19:0] $end
$var wire 20 ~" TYPE1 [19:0] $end
$var reg 32 !# OUT [31:0] $end
$upscope $end
$scope module myreg $end
$var wire 1 5 CLK $end
$var wire 5 "# INADDRESS [4:0] $end
$var wire 32 ## OUT1 [31:0] $end
$var wire 5 $# OUT1ADDRESS [4:0] $end
$var wire 32 %# OUT2 [31:0] $end
$var wire 5 &# OUT2ADDRESS [4:0] $end
$var wire 1 6 RESET $end
$var wire 1 D" WRITE $end
$var wire 32 '# IN [31:0] $end
$var integer 32 (# i [31:0] $end
$upscope $end
$scope module oparand1_mux $end
$var wire 32 )# INPUT1 [31:0] $end
$var wire 32 *# INPUT2 [31:0] $end
$var wire 1 9" SELECT $end
$var reg 32 +# RESULT [31:0] $end
$upscope $end
$scope module oparand2_mux $end
$var wire 32 ,# INPUT1 [31:0] $end
$var wire 32 -# INPUT2 [31:0] $end
$var wire 1 :" SELECT $end
$var reg 32 .# RESULT [31:0] $end
$upscope $end
$scope module regWriteSelMUX $end
$var wire 32 /# INPUT1 [31:0] $end
$var wire 32 0# INPUT2 [31:0] $end
$var wire 32 1# INPUT3 [31:0] $end
$var wire 32 2# INPUT4 [31:0] $end
$var wire 2 3# SELECT [1:0] $end
$var reg 32 4# RESULT [31:0] $end
$upscope $end
$upscope $end
$upscope $end
$enddefinitions $end
#0
$dumpvars
bx 4#
b0 3#
b0 2#
b0 1#
b0 0#
bx /#
bx .#
bx -#
bx ,#
bx +#
b0 *#
bx )#
bx (#
bx '#
bx &#
bx %#
bx $#
bx ##
b0 "#
bx !#
bx ~"
bx }"
bx |"
bx {"
bx z"
bx y"
bx x"
bx w"
b0 v"
b0 u"
bx t"
bx000 s"
bx r"
bx q"
bx p"
bx o"
bx n"
bx m"
bx l"
bx k"
xj"
bx i"
xh"
xg"
xf"
xe"
xd"
xc"
bx b"
bx a"
bx `"
b0 _"
bx ^"
bx ]"
bx \"
bx ["
bx Z"
bx Y"
bx X"
bx W"
bx V"
bx U"
bx T"
bx S"
bx R"
bx Q"
bx P"
bx000 O"
bx N"
bx M"
bx L"
bx K"
b0 J"
b0 I"
b0 H"
b0 G"
b0 F"
bx E"
0D"
0C"
xB"
b0 A"
b0 @"
b0 ?"
b0 >"
b0 ="
b0 <"
b0 ;"
x:"
x9"
b0 8"
bx 7"
b0 6"
bx 5"
bx 4"
bx 3"
bx 2"
b0 1"
bx 0"
bx /"
bx ."
bx000 -"
b0 ,"
bx +"
b11111111111111111111111111111100 *"
bx )"
bx ("
b0 '"
bx000 &"
bx %"
x$"
bx #"
bx ""
bx !"
bx ~
bx }
bx |
bx {
xz
xy
b0 x
b0 w
b100 v
bx u
xt
bx s
b0 r
b0 q
bx p
bx o
b0 n
bx m
0l
bx k
b1000 j
xi
b0 h
bx g
xf
xe
b0 d
bx c
xb
bx a
bx `
bx _
b11111111111111111111111111111100 ^
b111 ]
b11 \
b111 [
xZ
b100000000 Y
0X
bx W
0V
bx U
bx T
b1000 S
0R
b11111111111111111111111100000000 Q
xP
xO
b0 N
bx M
0L
xK
b0 J
b0 I
bx H
bx G
bx F
xE
bx D
xC
bx B
bx A
bx @
bx ?
bx >
bx =
b0 <
bx ;
b0 :
b0 9
b0 8
x7
16
15
bx 4
03
bx 2
01
bx 0
0/
x.
bx -
bx ,
0+
x*
bx )
x(
bx '
b11111111111111111111111111111100 &
bx %
b0 $
0#
b0 "
b0 !
$end
#10
b0 `
0b
#20
0$"
b100000 (#
#30
b0x S"
b0x T"
#100
05
#200
bx u
bx '#
bx 4#
bx ?
bx =
bx >
bx ;
b0 '"
b0 I"
b0 _"
bx ("
bx ]"
bx .#
bx )"
bx ^"
bx +#
bx $#
bx &#
bx l"
bx q"
bx t"
bx p"
bx ~"
bx }"
bx |"
bx {"
bx z"
bx y"
bx 2"
bx /#
bx 4
bx @
bx !"
bx +"
xB"
bx E"
bx 7"
x:"
x9"
bx000 -"
bx000 O"
bx 5"
bx ."
bx b"
bx 3"
bx -#
xh"
xc"
xe"
xg"
xd"
xf"
bx 0"
bx a"
bx ,#
bx /"
bx `"
bx )#
bx 4"
bx i"
bx w"
15
#250
06
#300
05
#400
bx ?"
xR
xL
b0 ?
b0 =
b0 >
b0 ;
xC"
bx F"
bx !
bx :
bx r
bx 8"
bx "
bx <
bx q
bx 6"
bx $
bx 9
bx n
bx 1"
b0 4
b0 @
b0 !"
b0 +"
bx ,"
bx 0#
15
#410
b1 d
0e
0.
1f
11
b100 x
b100 J"
b0 \
b0 ]
b0 [
b0 B
0C
0E
1#
b100 w
b100 H"
b0 &
b0 ^
b0 *"
#420
b0 2
b0 g
b0 p
#500
05
#600
1l
1/
0i
b0 0
b0 c
b0 k
1.
b1 d
b1 h
0#
15
#700
05
#800
15
#900
05
#1000
15
#1100
05
#1200
15
bx00010011 -
bx00010011 _
bx00010011 m
#1300
05
#1400
15
#1500
05
#1600
15
bx1000000000010011 -
bx1000000000010011 _
bx1000000000010011 m
#1700
05
#1800
15
#1900
05
#2000
15
bx011000001000000000010011 -
bx011000001000000000010011 _
bx011000001000000000010011 m
#2100
05
#2200
15
#2300
05
#2400
15
bx10111100011000001000000000010011 -
bx10111100011000001000000000010011 _
bx10111100011000001000000000010011 m
#2500
05
#2600
15
#2700
05
#2800
15
bx1001001110111100011000001000000000010011 -
bx1001001110111100011000001000000000010011 _
bx1001001110111100011000001000000000010011 m
#2900
05
#3000
15
#3100
05
#3200
15
bx100000001001001110111100011000001000000000010011 -
bx100000001001001110111100011000001000000000010011 _
bx100000001001001110111100011000001000000000010011 m
#3300
05
#3400
15
#3500
05
#3600
15
bx10000000100000001001001110111100011000001000000000010011 -
bx10000000100000001001001110111100011000001000000000010011 _
bx10000000100000001001001110111100011000001000000000010011 m
#3700
05
#3800
15
#3900
05
#4000
15
bx0000000010000000100000001001001110111100011000001000000000010011 -
bx0000000010000000100000001001001110111100011000001000000000010011 _
bx0000000010000000100000001001001110111100011000001000000000010011 m
#4100
05
#4200
15
#4300
05
#4400
15
bx000000000000000010000000100000001001001110111100011000001000000000010011 -
bx000000000000000010000000100000001001001110111100011000001000000000010011 _
bx000000000000000010000000100000001001001110111100011000001000000000010011 m
#4500
05
#4600
15
#4700
05
#4800
15
bx00000000000000000000000010000000100000001001001110111100011000001000000000010011 -
bx00000000000000000000000010000000100000001001001110111100011000001000000000010011 _
bx00000000000000000000000010000000100000001001001110111100011000001000000000010011 m
#4900
05
#5000
15
#5100
05
#5200
15
bx0000000000000000000000000000000010000000100000001001001110111100011000001000000000010011 -
bx0000000000000000000000000000000010000000100000001001001110111100011000001000000000010011 _
bx0000000000000000000000000000000010000000100000001001001110111100011000001000000000010011 m
#5300
05
#5400
15
#5500
05
#5600
15
bx000000000000000000000000000000000000000010000000100000001001001110111100011000001000000000010011 -
bx000000000000000000000000000000000000000010000000100000001001001110111100011000001000000000010011 _
bx000000000000000000000000000000000000000010000000100000001001001110111100011000001000000000010011 m
#5700
05
#5800
15
#5900
05
#6000
15
bx00000000000000000000000000000000000000000000000010000000100000001001001110111100011000001000000000010011 -
bx00000000000000000000000000000000000000000000000010000000100000001001001110111100011000001000000000010011 _
bx00000000000000000000000000000000000000000000000010000000100000001001001110111100011000001000000000010011 m
#6100
05
#6200
15
#6300
05
#6400
15
bx0000000000000000000000000000000000000000000000000000000010000000100000001001001110111100011000001000000000010011 -
bx0000000000000000000000000000000000000000000000000000000010000000100000001001001110111100011000001000000000010011 _
bx0000000000000000000000000000000000000000000000000000000010000000100000001001001110111100011000001000000000010011 m
#6500
05
#6600
15
#6700
05
#6800
15
bx000000000000000000000000000000000000000000000000000000000000000010000000100000001001001110111100011000001000000000010011 -
bx000000000000000000000000000000000000000000000000000000000000000010000000100000001001001110111100011000001000000000010011 _
bx000000000000000000000000000000000000000000000000000000000000000010000000100000001001001110111100011000001000000000010011 m
#6900
05
#7000
15
#7100
05
#7200
0.
b0 h
1i
b1 d
15
0l
0/
b10000000100000001001001110111100011000001000000000010011 -
b10000000100000001001001110111100011000001000000000010011 _
b10000000100000001001001110111100011000001000000000010011 m
#7220
b10111100011000001000000000010011 2
b10111100011000001000000000010011 g
b10111100011000001000000000010011 p
b0 a
b10111100011000001000000000010011 `
1b
#7229
1e
b0 d
1Z
#7300
05
#7400
b1 $#
b110 &#
b10011 l"
b0 q"
b0 t"
b1011110 p"
b10111100011000001000 ~"
b10111100011000001000 }"
b101111000110 |"
b101111000000 {"
b101111000000 z"
b11110 y"
b100 ;"
b10111100011000001000000000010011 4"
b10111100011000001000000000010011 i"
b10111100011000001000000000010011 w"
bx @"
b0 u
b0 '#
b0 4#
b0 ,"
b0 0#
xD"
bx G"
bx 3#
0f
0e
01
15
#7410
1e
1f
11
b1000 x
b1000 J"
b1 \
1#
b1000 w
b1000 H"
b100 &
b100 ^
b100 *"
#7420
b100000001000000010010011 2
b100000001000000010010011 g
b100000001000000010010011 p
b0 #"
b0 ##
b0 ""
b0 %#
#7430
b11111111111111111111101111000110 ~
b11111111111111111111101111000110 !#
1y
b10 }
b10 o"
b10 x"
0j"
1t
0z
b1 s
b1 k"
b0 %"
b0 r"
b0 &"
b0 s"
b0 {
b0 m"
b0 |
b0 n"
#7500
05
#7600
b1000 &#
b0 p"
b1000 ~
b1000 !#
b100000001000 ~"
b100000001000 }"
b1000 |"
b1 {"
b1 z"
b0 y"
b1000 ;"
b100000001000000010010011 4"
b100000001000000010010011 i"
b100000001000000010010011 w"
bx '"
bx I"
bx _"
b11111111111111111111101111000110 ("
b11111111111111111111101111000110 ]"
b11111111111111111111101111000110 .#
b0 )"
b0 ^"
b0 +#
1B"
b1 E"
b0 7"
b0 5"
1:"
09"
b0 -"
b0 O"
b0 ."
b0 b"
b11111111111111111111101111000110 3"
b11111111111111111111101111000110 -#
1h"
0c"
0e"
0g"
0d"
0f"
b0 0"
b0 a"
b0 ,#
b0 /"
b0 `"
b0 )#
b100 <"
b100 *#
b0 ?"
bx A"
bx "#
0f
0e
01
0#
15
#7610
1e
1f
11
b1100 x
b1100 J"
b10 \
b11111111111111111111101111000110 L"
1#
b1100 w
b1100 H"
b1000 &
b1000 ^
b1000 *"
#7620
b0 2
b0 g
b0 p
#7630
b11111111111111111111101111000110 '"
b11111111111111111111101111000110 I"
b11111111111111111111101111000110 _"
b1 S"
b0 T"
b11111111111111111111101111000110 N"
b11111111111111111111101111000110 M"
b0 K"
b10000111010 P"
b11111111111111111111101111000110 \"
#7640
b0 R"
b0 Q"
b0 U"
#7680
b0 Z"
b0 X"
b0 Y"
#7700
05
#7800
b0 $#
b0 &#
b0 l"
b0 ~
b0 !#
b0 ~"
b0 }"
b0 |"
b0 {"
b0 z"
b1100 ;"
b0 4"
b0 i"
b0 w"
b1000 ("
b1000 ]"
b1000 .#
b1000 3"
b1000 -#
b1000 <"
b1000 *#
b1 ?"
0R
0L
b11111111000000001111111111111111 Q
b10 ?
b1 =
b100 >
b1111111111111111111110111 ;
1C"
b1 F"
b0 !
b0 :
b0 r
b0 8"
b0 "
b0 <
b0 q
b0 6"
b0 $
b0 9
b0 n
b0 1"
b11111111111111111111101111000110 4
b11111111111111111111101111000110 @
b11111111111111111111101111000110 !"
b11111111111111111111101111000110 +"
b1000 v
b100 ="
b0 @"
0f
0e
01
0#
15
#7810
1e
1f
11
b10000 x
b10000 J"
b11 \
b1000 L"
1#
b10000 w
b10000 H"
b1100 &
b1100 ^
b1100 *"
#7830
b1000 '"
b1000 I"
b1000 _"
b0xxx }
b0xxx o"
b0xxx x"
0y
0t
b1 T"
b1000 N"
b1000 M"
b11111111111111111111111111111000 P"
b1000 \"
#7900
05
#8000
b10000 ;"
b0 ("
b0 ]"
b0 .#
0B"
0:"
b0 3"
b0 -#
b1100 <"
b1100 *#
b0 ?"
b11111111111111111111111100000000 Q
b0 ?
b10 =
b0 >
b0 ;
b1000 4
b1000 @
b1000 !"
b1000 +"
b1100 v
b1000 ="
b1 @"
b11111111111111111111101111000110 u
b11111111111111111111101111000110 '#
b11111111111111111111101111000110 4#
b11111111111111111111101111000110 ,"
b11111111111111111111101111000110 0#
1D"
b1 G"
b1 3#
b100 >"
b100 2#
b0 A"
b0 "#
0f
0e
01
0#
15
#8010
1e
1f
11
b10100 x
b10100 J"
b0 \
b1 ]
b0 L"
1#
b10100 w
b10100 H"
b10000 &
b10000 ^
b10000 *"
#8020
0e
b1 d
bx a
b0 `
0b
#8029
xZ
#8030
b0 '"
b0 I"
b0 _"
b0 S"
b0 T"
b0 N"
b0 M"
b0 P"
b0 \"
#8100
05
#8200
0i
1l
1/
b1 0
b1 c
b1 k
1.
b1 d
b1 h
0#
15
#8220
b10111100011000001000000000010011 2
b10111100011000001000000000010011 g
b10111100011000001000000000010011 p
b0 a
b10111100011000001000000000010011 `
1b
b11111111111111111111101111000110 #"
b11111111111111111111101111000110 ##
b11111111111111111111101111000110 ""
b11111111111111111111101111000110 %#
#8229
1Z
#8300
05
#8400
15
#8500
05
#8600
15
#8700
05
#8800
15
b10000000100000001001001110111100011000001000000000000000 -
b10000000100000001001001110111100011000001000000000000000 _
b10000000100000001001001110111100011000001000000000000000 m
#8900
05
#9000
15
#9100
05
#9200
15
b10000000100000001001001110111100011000000000000000000000 -
b10000000100000001001001110111100011000000000000000000000 _
b10000000100000001001001110111100011000000000000000000000 m
#9300
05
#9400
15
#9500
05
#9600
15
b10000000100000001001001110111100000000000000000000000000 -
b10000000100000001001001110111100000000000000000000000000 _
b10000000100000001001001110111100000000000000000000000000 m
#9700
05
#9800
15
#9900
05
#10000
15
b10000000100000001001001100000000000000000000000000000000 -
b10000000100000001001001100000000000000000000000000000000 _
b10000000100000001001001100000000000000000000000000000000 m
#10100
05
#10200
15
#10300
05
#10400
15
b10000000100000000000000000000000000000000000000000000000 -
b10000000100000000000000000000000000000000000000000000000 _
b10000000100000000000000000000000000000000000000000000000 m
#10500
05
#10600
15
#10700
05
#10800
15
b10000000000000000000000000000000000000000000000000000000 -
b10000000000000000000000000000000000000000000000000000000 _
b10000000000000000000000000000000000000000000000000000000 m
#10900
05
#11000
15
#11100
05
#11200
15
b0 -
b0 _
b0 m
#11300
05
#11400
15
#11500
05
#11600
15
#11700
05
#11800
15
#11900
05
#12000
15
#12100
05
#12200
15
#12300
05
#12400
15
#12500
05
#12600
15
#12700
05
#12800
15
#12900
05
#13000
15
#13100
05
#13200
15
#13300
05
#13400
15
#13500
05
#13600
15
#13700
05
#13800
15
#13900
05
#14000
15
#14100
05
#14200
15
#14300
05
#14400
15
#14500
05
#14600
15
#14700
05
#14800
1e
0.
b0 h
1i
b0 d
15
0l
0/
#14820
b0 2
b0 g
b0 p
b0 `
#14900
05
#15000
b10100 ;"
b11111111111111111111101111000110 ("
b11111111111111111111101111000110 ]"
b11111111111111111111101111000110 .#
b11111111111111111111101111000110 )"
b11111111111111111111101111000110 ^"
b11111111111111111111101111000110 +#
b11111111111111111111101111000110 0"
b11111111111111111111101111000110 a"
b11111111111111111111101111000110 ,#
1h"
0c"
0g"
0f"
b11111111111111111111101111000110 /"
b11111111111111111111101111000110 `"
b11111111111111111111101111000110 )#
b10000 <"
b10000 *#
b0 =
0C"
b0 4
b0 @
b0 !"
b0 +"
b10000 v
b1100 ="
b0 @"
b1000 u
b1000 '#
b1000 4#
b1000 ,"
b1000 0#
b1000 >"
b1000 2#
b1 A"
b1 "#
0f
0e
01
15
#15010
1e
1f
11
b11000 x
b11000 J"
b1 \
b11111111111111111111101111000110 L"
1#
b11000 w
b11000 H"
b10100 &
b10100 ^
b10100 *"
#15030
b11111111111111111111011110001100 '"
b11111111111111111111011110001100 I"
b11111111111111111111011110001100 _"
b11111111111111111111101111000110 M"
b11111111111111111111101111000110 K"
b11111111111111111111011110001100 \"
#15080
b100011101110100100100 Z"
b0 V"
b0 W"
b1 ["
b100011101110100100100 X"
b100011101110100100100 Y"
#15100
05
#15200
b11000 ;"
b10100 <"
b10100 *#
b11111111111111111111101111000110 I
b11 =
b1111111111111111111101111 ;
b11111111111111111111101111000110 $
b11111111111111111111101111000110 9
b11111111111111111111101111000110 n
b11111111111111111111101111000110 1"
b11111111111111111111011110001100 4
b11111111111111111111011110001100 @
b11111111111111111111011110001100 !"
b11111111111111111111011110001100 +"
b10100 v
b10000 ="
b0 u
b0 '#
b0 4#
b0 ,"
b0 0#
0D"
b1100 >"
b1100 2#
b0 A"
b0 "#
0f
0e
01
0#
15
#15210
1e
1f
11
b11100 x
b11100 J"
b10 \
1#
b11100 w
b11100 H"
b11000 &
b11000 ^
b11000 *"
#15300
05
#15400
b11100 ;"
b11000 <"
b11000 *#
b11000 v
b10100 ="
b11111111111111111111011110001100 u
b11111111111111111111011110001100 '#
b11111111111111111111011110001100 4#
b11111111111111111111011110001100 ,"
b11111111111111111111011110001100 0#
b10000 >"
b10000 2#
0f
0e
01
0#
15
#15410
1e
1f
11
b100000 x
b100000 J"
b11 \
1#
b100000 w
b100000 H"
b11100 &
b11100 ^
b11100 *"
#15500
05
#15600
b100000 ;"
b11100 <"
b11100 *#
b11100 v
b11000 ="
b10100 >"
b10100 2#
0f
0e
01
0#
15
#15610
1e
1f
11
b100100 x
b100100 J"
b0 \
b10 ]
1#
b100100 w
b100100 H"
b100000 &
b100000 ^
b100000 *"
#15620
0e
b1 d
bx a
0b
#15629
xZ
#15700
05
#15800
0i
1l
1/
b10 0
b10 c
b10 k
1.
b1 d
b1 h
0#
15
#15820
b0 a
1b
#15829
1Z
#15900
05
#16000
15
#16100
05
#16200
15
#16300
05
#16400
15
b1101111 -
b1101111 _
b1101111 m
#16500
05
#16600
15
#16700
05
#16800
15
b1001101111 -
b1001101111 _
b1001101111 m
