cpu/verilog/cpu_wavedata.vcd
$date
	Tue Aug 10 20:34:34 2021
$end
$version
	Icarus Verilog
$end
$timescale
	100ps
$end
$scope module testbenchCPU $end
$var wire 1 ! MAIN_MEM_READ $end
$var wire 3 " memWrite [2:0] $end
$var wire 4 # memRead [3:0] $end
$var wire 1 $ insReadEn $end
$var wire 32 % WRITE_DATA [31:0] $end
$var wire 32 & READ_DATA [31:0] $end
$var wire 32 ' PC [31:0] $end
$var wire 1 ( MAIN_M_READ $end
$var wire 128 ) MAIN_MEM_WRITE_DATA [127:0] $end
$var wire 1 * MAIN_MEM_WRITE $end
$var wire 128 + MAIN_MEM_READ_DATA [127:0] $end
$var wire 1 , MAIN_MEM_BUSY_WAIT $end
$var wire 28 - MAIN_MEM_ADDRESS [27:0] $end
$var wire 128 . INS_MEM_READ_DATA [127:0] $end
$var wire 1 / INS_MEM_READ $end
$var wire 1 0 INS_MEM_BUSY_WAIT $end
$var wire 28 1 INS_MEM_ADDRESS [27:0] $end
$var wire 1 2 INS_CACHE_BUSY_WAIT $end
$var wire 32 3 INS [31:0] $end
$var wire 1 4 BUSY_WAIT $end
$var wire 32 5 ADDRESS [31:0] $end
$var reg 1 6 CLK $end
$var reg 1 7 RESET $end
$scope module myCacheMemory $end
$var wire 1 8 TAG_MATCH $end
$var wire 1 6 clock $end
$var wire 1 7 reset $end
$var wire 32 9 writedata [31:0] $end
$var wire 3 : write [2:0] $end
$var wire 25 ; tag [24:0] $end
$var wire 4 < read [3:0] $end
$var wire 2 = offset [1:0] $end
$var wire 3 > index [2:0] $end
$var wire 2 ? byte_offset [1:0] $end
$var wire 32 @ address [31:0] $end
$var wire 128 A MAIN_MEM_READ_DATA [127:0] $end
$var wire 1 , MAIN_MEM_BUSY_WAIT $end
$var reg 128 B CURRENT_DATA [127:0] $end
$var reg 1 C CURRENT_DIRTY $end
$var reg 25 D CURRENT_TAG [24:0] $end
$var reg 1 E CURRENT_VALID $end
$var reg 28 F MAIN_MEM_ADDRESS [27:0] $end
$var reg 1 ( MAIN_MEM_READ $end
$var reg 1 * MAIN_MEM_WRITE $end
$var reg 128 G MAIN_MEM_WRITE_DATA [127:0] $end
$var reg 1 4 busywait $end
$var reg 32 H cache_readdata [31:0] $end
$var reg 32 I cache_writedata [31:0] $end
$var reg 2 J next_state [1:0] $end
$var reg 1 K readCache $end
$var reg 1 L readaccess $end
$var reg 32 M readdata [31:0] $end
$var reg 2 N state [1:0] $end
$var reg 1 O writeCache $end
$var reg 1 P writeCache_mem $end
$var reg 32 Q write_mask [31:0] $end
$var reg 1 R writeaccess $end
$var integer 32 S i [31:0] $end
$upscope $end
$scope module myDataMem $end
$var wire 28 T address [27:0] $end
$var wire 1 6 clock $end
$var wire 1 ! read $end
$var wire 1 7 reset $end
$var wire 1 * write $end
$var wire 128 U writedata [127:0] $end
$var reg 1 , busywait $end
$var reg 1 V readaccess $end
$var reg 128 W readdata [127:0] $end
$var reg 1 X writeaccess $end
$var integer 32 Y i [31:0] $end
$upscope $end
$scope module myInsCacheMemory $end
$var wire 1 Z TAG_MATCH $end
$var wire 1 6 clock $end
$var wire 1 7 reset $end
$var wire 3 [ tag [2:0] $end
$var wire 1 $ read $end
$var wire 2 \ offset [1:0] $end
$var wire 3 ] index [2:0] $end
$var wire 32 ^ address [31:0] $end
$var wire 128 _ MAIN_MEM_READ_DATA [127:0] $end
$var wire 1 0 MAIN_MEM_BUSY_WAIT $end
$var reg 32 ` CURRENT_DATA [31:0] $end
$var reg 3 a CURRENT_TAG [2:0] $end
$var reg 1 b CURRENT_VALID $end
$var reg 28 c MAIN_MEM_ADDRESS [27:0] $end
$var reg 1 / MAIN_MEM_READ $end
$var reg 1 2 busywait $end
$var reg 2 d next_state [1:0] $end
$var reg 1 e readCache $end
$var reg 1 f readaccess $end
$var reg 32 g readdata [31:0] $end
$var reg 2 h state [1:0] $end
$var reg 1 i writeCache_mem $end
$var integer 32 j i [31:0] $end
$upscope $end
$scope module myInsMem $end
$var wire 28 k address [27:0] $end
$var wire 1 6 clock $end
$var wire 1 / read $end
$var reg 1 0 busywait $end
$var reg 1 l readaccess $end
$var reg 128 m readdata [127:0] $end
$upscope $end
$scope module mycpu $end
$var wire 1 6 CLK $end
$var wire 1 4 DATA_CACHE_BUSY_WAIT $end
$var wire 32 n DATA_CACHE_DATA [31:0] $end
$var wire 32 o DATA_CACHE_READ_DATA [31:0] $end
$var wire 32 p INSTRUCTION [31:0] $end
$var wire 1 2 INS_CACHE_BUSY_WAIT $end
$var wire 1 7 RESET $end
$var wire 4 q memReadEn [3:0] $end
$var wire 3 r memWriteEn [2:0] $end
$var wire 2 s REG_WRITE_SELECT_S2 [1:0] $end
$var wire 1 t REG_WRITE_EN_S2 $end
$var wire 32 u REG_WRITE_DATA [31:0] $end
$var wire 32 v PC_PLUS_4_2 [31:0] $end
$var wire 32 w PC_PLUS_4 [31:0] $end
$var wire 32 x PC_NEXT [31:0] $end
$var wire 1 y OPERAND2_SEL $end
$var wire 1 z OPERAND1_SEL $end
$var wire 3 { MEM_WRITE_S2 [2:0] $end
$var wire 4 | MEM_READ_S2 [3:0] $end
$var wire 4 } IMMEDIATE_SELECT [3:0] $end
$var wire 32 ~ IMMEDIATE_OUT_S2 [31:0] $end
$var wire 32 !" DATA_CACHE_ADDR [31:0] $end
$var wire 32 "" DATA2_S2 [31:0] $end
$var wire 32 #" DATA1_S2 [31:0] $end
$var wire 1 $" BRANCH_SELECT_OUT $end
$var wire 4 %" BRANCH_SELECT [3:0] $end
$var wire 5 &" ALU_SELECT [4:0] $end
$var wire 32 '" ALU_OUT [31:0] $end
$var wire 32 (" ALU_IN_2 [31:0] $end
$var wire 32 )" ALU_IN_1 [31:0] $end
$var reg 32 *" PC [31:0] $end
$var reg 32 +" PR_ALU_OUT_S3 [31:0] $end
$var reg 32 ," PR_ALU_OUT_S4 [31:0] $end
$var reg 5 -" PR_ALU_SELECT [4:0] $end
$var reg 4 ." PR_BRANCH_SELECT_S2 [3:0] $end
$var reg 32 /" PR_DATA_1_S2 [31:0] $end
$var reg 32 0" PR_DATA_2_S2 [31:0] $end
$var reg 32 1" PR_DATA_2_S3 [31:0] $end
$var reg 32 2" PR_DATA_CACHE_OUT [31:0] $end
$var reg 32 3" PR_IMMEDIATE_SELECT_OUT [31:0] $end
$var reg 32 4" PR_INSTRUCTION [31:0] $end
$var reg 4 5" PR_MEM_READ_S2 [3:0] $end
$var reg 4 6" PR_MEM_READ_S3 [3:0] $end
$var reg 3 7" PR_MEM_WRITE_S2 [2:0] $end
$var reg 3 8" PR_MEM_WRITE_S3 [2:0] $end
$var reg 1 9" PR_OPERAND1_SEL $end
$var reg 1 :" PR_OPERAND2_SEL $end
$var reg 32 ;" PR_PC_S1 [31:0] $end
$var reg 32 <" PR_PC_S2 [31:0] $end
$var reg 32 =" PR_PC_S3 [31:0] $end
$var reg 32 >" PR_PC_S4 [31:0] $end
$var reg 5 ?" PR_REGISTER_WRITE_ADDR_S2 [4:0] $end
$var reg 5 @" PR_REGISTER_WRITE_ADDR_S3 [4:0] $end
$var reg 5 A" PR_REGISTER_WRITE_ADDR_S4 [4:0] $end
$var reg 1 B" PR_REG_WRITE_EN_S2 $end
$var reg 1 C" PR_REG_WRITE_EN_S3 $end
$var reg 1 D" PR_REG_WRITE_EN_S4 $end
$var reg 2 E" PR_REG_WRITE_SELECT_S2 [1:0] $end
$var reg 2 F" PR_REG_WRITE_SELECT_S3 [1:0] $end
$var reg 2 G" PR_REG_WRITE_SELECT_S4 [1:0] $end
$var reg 1 $ insReadEn $end
$scope module muxjump $end
$var wire 32 H" INPUT1 [31:0] $end
$var wire 1 $" SELECT $end
$var wire 32 I" INPUT2 [31:0] $end
$var reg 32 J" RESULT [31:0] $end
$upscope $end
$scope module myAlu $end
$var wire 32 K" INTER_AND [31:0] $end
$var wire 32 L" INTER_FWD [31:0] $end
$var wire 32 M" INTER_OR [31:0] $end
$var wire 32 N" INTER_XOR [31:0] $end
$var wire 5 O" SELECT [4:0] $end
$var wire 32 P" INTER_SUB [31:0] $end
$var wire 32 Q" INTER_SRL [31:0] $end
$var wire 32 R" INTER_SRA [31:0] $end
$var wire 32 S" INTER_SLTU [31:0] $end
$var wire 32 T" INTER_SLT [31:0] $end
$var wire 32 U" INTER_SLL [31:0] $end
$var wire 32 V" INTER_REMU [31:0] $end
$var wire 32 W" INTER_REM [31:0] $end
$var wire 32 X" INTER_MULHU [31:0] $end
$var wire 32 Y" INTER_MULHSU [31:0] $end
$var wire 32 Z" INTER_MUL [31:0] $end
$var wire 32 [" INTER_DIV [31:0] $end
$var wire 32 \" INTER_ADD [31:0] $end
$var wire 32 ]" DATA2 [31:0] $end
$var wire 32 ^" DATA1 [31:0] $end
$var reg 32 _" RESULT [31:0] $end
$upscope $end
$scope module myBranchSelect $end
$var wire 32 `" DATA1 [31:0] $end
$var wire 32 a" DATA2 [31:0] $end
$var wire 4 b" SELECT [3:0] $end
$var wire 1 c" BNE $end
$var wire 1 d" BLTU $end
$var wire 1 e" BLT $end
$var wire 1 f" BGEU $end
$var wire 1 g" BGE $end
$var wire 1 h" BEQ $end
$var reg 1 $" MUX_OUT $end
$upscope $end
$scope module myControl $end
$var wire 32 i" INSTRUCTION [31:0] $end
$var wire 1 7 RESET $end
$var wire 1 j" funct3_mux_select $end
$var wire 1 z oparand_1_select $end
$var wire 1 y oparand_2_select $end
$var wire 1 t reg_file_write $end
$var wire 2 k" reg_write_select [1:0] $end
$var wire 7 l" opcode [6:0] $end
$var wire 3 m" main_mem_write [2:0] $end
$var wire 4 n" main_mem_read [3:0] $end
$var wire 4 o" immediate_select [3:0] $end
$var wire 7 p" funct7 [6:0] $end
$var wire 3 q" funct3 [2:0] $end
$var wire 4 r" branch_control [3:0] $end
$var wire 5 s" alu_signal [4:0] $end
$scope module funct3_mux $end
$var wire 3 t" INPUT1 [2:0] $end
$var wire 3 u" INPUT2 [2:0] $end
$var wire 1 j" SELECT $end
$var reg 3 v" RESULT [2:0] $end
$upscope $end
$upscope $end
$scope module myImmediate $end
$var wire 32 w" INST [31:0] $end
$var wire 4 x" SELECT [3:0] $end
$var wire 5 y" TYPE6 [4:0] $end
$var wire 12 z" TYPE5 [11:0] $end
$var wire 12 {" TYPE4 [11:0] $end
$var wire 12 |" TYPE3 [11:0] $end
$var wire 20 }" TYPE2 [19:0] $end
$var wire 20 ~" TYPE1 [19:0] $end
$var reg 32 !# OUT [31:0] $end
$upscope $end
$scope module myreg $end
$var wire 1 6 CLK $end
$var wire 5 "# INADDRESS [4:0] $end
$var wire 32 ## OUT1 [31:0] $end
$var wire 5 $# OUT1ADDRESS [4:0] $end
$var wire 32 %# OUT2 [31:0] $end
$var wire 5 &# OUT2ADDRESS [4:0] $end
$var wire 1 7 RESET $end
$var wire 1 D" WRITE $end
$var wire 32 '# IN [31:0] $end
$var integer 32 (# i [31:0] $end
$upscope $end
$scope module oparand1_mux $end
$var wire 32 )# INPUT1 [31:0] $end
$var wire 32 *# INPUT2 [31:0] $end
$var wire 1 9" SELECT $end
$var reg 32 +# RESULT [31:0] $end
$upscope $end
$scope module oparand2_mux $end
$var wire 32 ,# INPUT1 [31:0] $end
$var wire 32 -# INPUT2 [31:0] $end
$var wire 1 :" SELECT $end
$var reg 32 .# RESULT [31:0] $end
$upscope $end
$scope module regWriteSelMUX $end
$var wire 32 /# INPUT1 [31:0] $end
$var wire 32 0# INPUT2 [31:0] $end
$var wire 32 1# INPUT3 [31:0] $end
$var wire 32 2# INPUT4 [31:0] $end
$var wire 2 3# SELECT [1:0] $end
$var reg 32 4# RESULT [31:0] $end
$upscope $end
$upscope $end
$upscope $end
$enddefinitions $end
#0
$dumpvars
b0 4#
b0 3#
b0 2#
b0 1#
b0 0#
b0 /#
b0 .#
b0 -#
b0 ,#
b0 +#
b0 *#
b0 )#
bx (#
b0 '#
bx &#
bx %#
bx $#
bx ##
b0 "#
bx !#
b0 ~"
b0 }"
b0 |"
b0 {"
b0 z"
b0 y"
bx x"
b0 w"
b0 v"
b0 u"
bx t"
bx000 s"
bx r"
bx q"
bx p"
bx o"
bx n"
bx m"
bx l"
bx k"
xj"
bx i"
1h"
0g"
0f"
0e"
0d"
0c"
b0 b"
b0 a"
b0 `"
bx _"
b0 ^"
b0 ]"
bx \"
bx ["
bx Z"
bx Y"
bx X"
bx W"
bx V"
bx U"
bx T"
bx S"
bx R"
bx Q"
bx P"
b0 O"
bx N"
bx M"
bx L"
bx K"
bx J"
bx I"
b0 H"
b0 G"
b0 F"
b0 E"
0D"
0C"
0B"
b0 A"
b0 @"
b0 ?"
b0 >"
b0 ="
b0 <"
b0 ;"
0:"
09"
b0 8"
b0 7"
b0 6"
b0 5"
b0 4"
b0 3"
b0 2"
b0 1"
b0 0"
b0 /"
b0 ."
b0 -"
b0 ,"
b0 +"
b11111111111111111111111111111100 *"
b0 )"
b0 ("
bx '"
bx000 &"
bx %"
x$"
bx #"
bx ""
b0 !"
bx ~
bx }
bx |
bx {
xz
xy
bx x
b0 w
b100 v
b0 u
xt
bx s
b0 r
b0 q
bx p
bx o
b0 n
bx m
0l
bx k
b1000 j
xi
b0 h
bx g
xf
xe
b0 d
bx c
xb
bx a
bx `
bx _
b11111111111111111111111111111100 ^
b111 ]
b11 \
b111 [
xZ
b100000000 Y
0X
bx W
0V
bx U
bx T
b1000 S
0R
b11111111111111111111111100000000 Q
xP
xO
b0 N
bx M
0L
xK
b0 J
b0 I
bx H
bx G
bx F
xE
bx D
xC
bx B
bx A
b0 @
b0 ?
b0 >
b0 =
b0 <
b0 ;
b0 :
b0 9
x8
17
16
b0 5
04
bx 3
02
bx 1
00
x/
bx .
bx -
0,
bx +
x*
bx )
x(
b11111111111111111111111111111100 '
bx &
b0 %
0$
b0 #
b0 "
z!
$end
#10
b0 B
0C
0E
b0 `
0b
b0 L"
07
#20
b100000 (#
#30
b0 x
b0 J"
b0 '"
b0 I"
b0 _"
b0 N"
b0 M"
b0 K"
b0 P"
b0 \"
b0 S"
b0 T"
#40
b0 R"
b0 Q"
b0 U"
06
#80
xR
xL
x4
bx ("
bx ]"
bx .#
b11111111111111111111111111111100 )"
b11111111111111111111111111111100 ^"
b11111111111111111111111111111100 +#
bx ~"
bx }"
bx |"
bx {"
bx z"
bx y"
bx 2"
bx 1#
xD"
bx G"
bx 3#
bx A"
bx "#
xC"
bx F"
bx "
bx :
bx r
bx 8"
bx #
bx <
bx q
bx 6"
bx %
bx 9
bx n
bx 1"
b0 v
b11111111111111111111111111111100 ="
bx @"
xB"
bx E"
bx 7"
bx 5"
x:"
x9"
bx000 -"
bx000 O"
bx ."
bx b"
bx 3"
bx -#
bx 0"
bx a"
bx ,#
xh"
xc"
xe"
xg"
xd"
xf"
bx /"
bx `"
bx )#
b11111111111111111111111111111100 <"
b11111111111111111111111111111100 *#
bx ?"
b11111111111111111111111111111100 ;"
bx 4"
bx w"
16
b0 Z"
b0 X"
b0 Y"
#90
bx L"
#110
b0x S"
b0x T"
bx N"
b111111111111111111111111111111xx M"
bx00 K"
bx P"
bx \"
#120
bx R"
bx Q"
bx U"
06
#160
16
bx Z"
b0 V"
b0 W"
b1 ["
b10000 X"
b10000 Y"
